<svg width="100" height="125" viewBox="0 0 100 125" fill="none" xmlns="http://www.w3.org/2000/svg">
<path d="M89.999 29.5898L89.9785 29.0117C89.9502 24.7441 86.4463 21.2725 82.167 21.2725H23.3838V11C23.3838 10.4473 22.9365 10 22.3838 10H16.7852C13.0439 10 10 13.0361 10 16.7686C10 16.8022 10.0001 16.8343 10.0001 16.8679C10.0001 16.868 10 16.868 10 16.8682C10 16.8685 10.0001 16.869 10.0001 16.8693C10.0342 75.3054 10.0537 75.499 10.0596 75.5635C10.4307 79.3018 13.7949 82.2305 17.7207 82.2305H77.5449V89C77.5449 89.5527 77.9922 90 78.5449 90H82.1621C86.4844 90 90 86.4932 90 82.1826V29.625C90 29.6184 89.9964 29.613 89.9963 29.6065C89.9962 29.6006 89.9992 29.5957 89.999 29.5898ZM16.7852 12H21.3838V21.2725H16.4043C13.9756 21.2725 12.0001 19.2971 12 16.8684C12 16.817 12 16.7786 12 16.7676C12 14.1387 14.1465 12 16.7852 12ZM17.7207 80.2305C14.8115 80.2305 12.3203 78.0938 12.0537 75.4316C12.0375 74.6899 12.0114 35.339 12.0028 21.5081C13.1516 22.5984 14.6992 23.2725 16.4043 23.2725H82.167C85.3506 23.2725 87.958 25.8535 87.9795 29.0537L87.9998 29.6281C87.9981 32.8347 85.3798 35.4424 82.1621 35.4424H78.5449C77.9922 35.4424 77.5449 35.8896 77.5449 36.4424V80.2305H17.7207ZM88 82.1826C88 85.3906 85.3809 88 82.1621 88H79.5449V37.4424H82.1621C84.4785 37.4424 86.5635 36.4346 88 34.8359V82.1826Z" fill="black"/>
<path d="M65.2891 32.4121H28.9307C28.3779 32.4121 27.9307 32.8594 27.9307 33.4121V69.7705C27.9307 70.3232 28.3779 70.7705 28.9307 70.7705H65.2891C65.8418 70.7705 66.2891 70.3232 66.2891 69.7705V33.4121C66.2891 32.8594 65.8418 32.4121 65.2891 32.4121ZM29.9307 68.7705V58.1338H40.5117V59.6826C40.5117 60.2354 40.959 60.6826 41.5117 60.6826C42.0645 60.6826 42.5117 60.2354 42.5117 59.6826V54.584C42.5117 54.0312 42.0645 53.584 41.5117 53.584C40.959 53.584 40.5117 54.0312 40.5117 54.584V56.1338H29.9307V34.4121H46.1104V45.1152H34.2236C33.6709 45.1152 33.2236 45.5625 33.2236 46.1152C33.2236 46.668 33.6709 47.1152 34.2236 47.1152H59.9961C60.5488 47.1152 60.9961 46.668 60.9961 46.1152C60.9961 45.5625 60.5488 45.1152 59.9961 45.1152H48.1104V34.4121H64.2891V56.1338H53.3174C52.7646 56.1338 52.3174 56.5811 52.3174 57.1338C52.3174 57.6865 52.7646 58.1338 53.3174 58.1338H64.2891V68.7705H29.9307Z" fill="black"/>
</svg>
