<svg width="114" height="240" viewBox="0 0 114 240" fill="none" xmlns="http://www.w3.org/2000/svg">
<path d="M0 49.8701C6.61862 47.0996 13.4655 43.9827 20.5405 40.5195C27.8438 36.8254 34.9189 32.9004 41.7658 28.7446C48.6126 24.3579 55.1171 19.8557 61.2793 15.2381C67.6697 10.3896 73.3754 5.31025 78.3964 0H114V240H62.991V67.1861C56.1441 71.8037 48.4985 76.075 40.0541 80C31.6096 83.6941 23.3934 86.9264 15.4054 89.697L0 49.8701Z" fill="#E3E5F0"/>
</svg>
