<svg width="498" height="367" viewBox="0 0 498 367" fill="none" xmlns="http://www.w3.org/2000/svg">
<path d="M95.9716 137.245C106.319 109.929 123.563 85.7585 146.024 67.0852L221.699 158.111C214.954 163.718 209.776 170.977 206.668 179.179L95.9716 137.245Z" fill="#BBD6FF"/>
<path d="M204.353 35.5031C221.319 30.2748 239.001 27.7494 256.752 28.0196L254.949 146.43C249.624 146.349 244.32 147.106 239.23 148.675L204.353 35.5031Z" fill="#8E98A7"/>
<path d="M143.855 68.9194C162.021 53.2941 183.299 41.7059 206.28 34.922L239.808 148.501C232.914 150.536 226.53 154.012 221.081 158.7L143.855 68.9194Z" fill="#92A7C6"/>
<path d="M89.0569 234.004C81.2799 199.134 84.7415 162.697 98.9458 129.915L207.608 176.999C203.346 186.833 202.308 197.764 204.641 208.225L89.0569 234.004Z" fill="#1A77FF"/>
<path d="M156.199 335.095C121.121 310.174 96.8557 272.824 88.3434 230.644L204.427 207.217C206.981 219.871 214.26 231.076 224.784 238.552L156.199 335.095Z" fill="#013F9A"/>
<path d="M254.177 28C280.935 28 307.311 34.347 331.14 46.5197C354.968 58.6925 375.57 76.3438 391.252 98.0242C406.935 119.705 417.251 144.796 421.354 171.237C425.456 197.678 423.229 224.716 414.854 250.129C406.478 275.543 392.195 298.607 373.175 317.428C354.156 336.249 330.943 350.291 305.443 358.399C279.944 366.508 252.884 368.452 226.487 364.073C200.091 359.693 175.109 349.115 153.594 333.206L224.002 237.986C230.457 242.758 237.951 245.932 245.87 247.246C253.789 248.56 261.907 247.976 269.557 245.544C277.207 243.111 284.171 238.899 289.876 233.252C295.582 227.606 299.867 220.687 302.38 213.063C304.893 205.439 305.561 197.327 304.33 189.395C303.099 181.463 300.004 173.935 295.3 167.431C290.595 160.927 284.414 155.632 277.266 151.98C270.117 148.328 262.204 146.424 254.177 146.424V28Z" fill="#003076"/>
<path d="M448.272 293.101C447.924 293.101 447.588 293.131 447.264 293.191C446.94 293.251 446.646 293.341 446.382 293.461C446.37 293.557 446.358 293.665 446.346 293.785C446.346 293.893 446.346 294.001 446.346 294.109C446.346 294.589 446.376 295.045 446.436 295.477C446.508 295.897 446.622 296.269 446.778 296.593C446.946 296.905 447.168 297.157 447.444 297.349C447.732 297.529 448.086 297.619 448.506 297.619C448.854 297.619 449.148 297.547 449.388 297.403C449.64 297.259 449.844 297.073 450 296.845C450.156 296.617 450.27 296.371 450.342 296.107C450.414 295.831 450.45 295.567 450.45 295.315C450.45 294.595 450.276 294.049 449.928 293.677C449.58 293.293 449.028 293.101 448.272 293.101ZM448.542 291.373C449.286 291.373 449.916 291.481 450.432 291.697C450.96 291.901 451.386 292.183 451.71 292.543C452.034 292.903 452.268 293.323 452.412 293.803C452.568 294.271 452.646 294.763 452.646 295.279C452.646 295.747 452.562 296.227 452.394 296.719C452.238 297.211 451.986 297.661 451.638 298.069C451.302 298.465 450.876 298.795 450.36 299.059C449.844 299.311 449.232 299.437 448.524 299.437C447.096 299.437 446.004 298.969 445.248 298.033C444.504 297.085 444.132 295.783 444.132 294.127C444.132 292.927 444.306 291.865 444.654 290.941C445.014 290.005 445.518 289.219 446.166 288.583C446.826 287.947 447.618 287.467 448.542 287.143C449.478 286.807 450.528 286.633 451.692 286.621L451.818 288.421C451.17 288.433 450.564 288.505 450 288.637C449.436 288.757 448.932 288.949 448.488 289.213C448.044 289.477 447.66 289.819 447.336 290.239C447.024 290.659 446.784 291.175 446.616 291.787C447.204 291.511 447.846 291.373 448.542 291.373ZM462.877 292.921C462.877 295.021 462.493 296.635 461.725 297.763C460.957 298.879 459.895 299.437 458.539 299.437C457.183 299.437 456.121 298.879 455.353 297.763C454.585 296.635 454.201 295.021 454.201 292.921C454.201 291.877 454.297 290.953 454.489 290.149C454.693 289.333 454.981 288.649 455.353 288.097C455.737 287.545 456.193 287.125 456.721 286.837C457.261 286.549 457.867 286.405 458.539 286.405C459.895 286.405 460.957 286.969 461.725 288.097C462.493 289.213 462.877 290.821 462.877 292.921ZM460.627 292.921C460.627 292.273 460.591 291.667 460.519 291.103C460.447 290.539 460.327 290.053 460.159 289.645C460.003 289.225 459.793 288.895 459.529 288.655C459.265 288.415 458.935 288.295 458.539 288.295C458.143 288.295 457.807 288.415 457.531 288.655C457.267 288.895 457.051 289.225 456.883 289.645C456.727 290.053 456.613 290.539 456.541 291.103C456.481 291.667 456.451 292.273 456.451 292.921C456.451 293.569 456.481 294.175 456.541 294.739C456.613 295.303 456.727 295.795 456.883 296.215C457.051 296.623 457.267 296.947 457.531 297.187C457.807 297.427 458.143 297.547 458.539 297.547C458.935 297.547 459.265 297.427 459.529 297.187C459.793 296.947 460.003 296.623 460.159 296.215C460.327 295.795 460.447 295.303 460.519 294.739C460.591 294.175 460.627 293.569 460.627 292.921ZM470.551 289.825C470.551 290.917 470.269 291.757 469.705 292.345C469.153 292.933 468.427 293.227 467.527 293.227C467.083 293.227 466.675 293.155 466.303 293.011C465.931 292.855 465.613 292.633 465.349 292.345C465.085 292.057 464.875 291.703 464.719 291.283C464.575 290.851 464.503 290.365 464.503 289.825C464.503 288.721 464.779 287.881 465.331 287.305C465.895 286.717 466.627 286.423 467.527 286.423C468.427 286.423 469.153 286.717 469.705 287.305C470.269 287.881 470.551 288.721 470.551 289.825ZM468.841 289.825C468.841 289.189 468.721 288.715 468.481 288.403C468.253 288.079 467.935 287.917 467.527 287.917C467.119 287.917 466.801 288.079 466.573 288.403C466.345 288.715 466.231 289.189 466.231 289.825C466.231 290.461 466.345 290.941 466.573 291.265C466.801 291.577 467.119 291.733 467.527 291.733C467.935 291.733 468.253 291.577 468.481 291.265C468.721 290.941 468.841 290.461 468.841 289.825ZM474.205 286.693H476.275L469.237 299.167H467.167L474.205 286.693ZM478.957 296.053C478.957 297.145 478.675 297.985 478.111 298.573C477.559 299.161 476.833 299.455 475.933 299.455C475.489 299.455 475.081 299.377 474.709 299.221C474.337 299.077 474.019 298.861 473.755 298.573C473.491 298.285 473.281 297.931 473.125 297.511C472.981 297.079 472.909 296.593 472.909 296.053C472.909 294.949 473.185 294.109 473.737 293.533C474.301 292.945 475.033 292.651 475.933 292.651C476.833 292.651 477.559 292.945 478.111 293.533C478.675 294.109 478.957 294.949 478.957 296.053ZM477.247 296.053C477.247 295.417 477.127 294.943 476.887 294.631C476.659 294.307 476.341 294.145 475.933 294.145C475.525 294.145 475.207 294.307 474.979 294.631C474.751 294.943 474.637 295.417 474.637 296.053C474.637 296.689 474.751 297.169 474.979 297.493C475.207 297.805 475.525 297.961 475.933 297.961C476.341 297.961 476.659 297.805 476.887 297.493C477.127 297.169 477.247 296.689 477.247 296.053Z" fill="#242B30"/>
<path d="M1.62 289.285C2.316 289.009 3.012 288.655 3.708 288.223C4.416 287.791 5.04 287.281 5.58 286.693H7.11V299.167H4.932V289.609C4.608 289.861 4.2 290.107 3.708 290.347C3.216 290.587 2.742 290.785 2.286 290.941L1.62 289.285ZM18.8885 289.933C18.8885 290.365 18.7985 290.791 18.6185 291.211C18.4385 291.619 18.2045 292.021 17.9165 292.417C17.6405 292.801 17.3225 293.179 16.9625 293.551C16.6025 293.911 16.2425 294.265 15.8825 294.613C15.6905 294.793 15.4745 295.009 15.2345 295.261C14.9945 295.513 14.7665 295.765 14.5505 296.017C14.3345 296.269 14.1485 296.515 13.9925 296.755C13.8365 296.983 13.7525 297.175 13.7405 297.331H19.2845V299.167H11.3465C11.3345 299.071 11.3285 298.957 11.3285 298.825C11.3285 298.681 11.3285 298.573 11.3285 298.501C11.3285 297.925 11.4185 297.397 11.5985 296.917C11.7905 296.425 12.0365 295.969 12.3365 295.549C12.6365 295.129 12.9725 294.733 13.3445 294.361C13.7165 293.989 14.0885 293.623 14.4605 293.263C14.7485 292.987 15.0245 292.717 15.2885 292.453C15.5525 292.189 15.7805 291.931 15.9725 291.679C16.1765 291.415 16.3385 291.151 16.4585 290.887C16.5785 290.611 16.6385 290.329 16.6385 290.041C16.6385 289.417 16.4585 288.973 16.0985 288.709C15.7385 288.445 15.3005 288.313 14.7845 288.313C14.4485 288.313 14.1365 288.361 13.8485 288.457C13.5605 288.553 13.3025 288.667 13.0745 288.799C12.8585 288.931 12.6665 289.069 12.4985 289.213C12.3305 289.345 12.2045 289.453 12.1205 289.537L11.0405 288.007C11.5445 287.527 12.1325 287.143 12.8045 286.855C13.4885 286.555 14.2205 286.405 15.0005 286.405C16.3325 286.405 17.3105 286.723 17.9345 287.359C18.5705 287.983 18.8885 288.841 18.8885 289.933ZM27.3549 289.825C27.3549 290.917 27.0729 291.757 26.5089 292.345C25.9569 292.933 25.2309 293.227 24.3309 293.227C23.8869 293.227 23.4789 293.155 23.1069 293.011C22.7349 292.855 22.4169 292.633 22.1529 292.345C21.8889 292.057 21.6789 291.703 21.5229 291.283C21.3789 290.851 21.3069 290.365 21.3069 289.825C21.3069 288.721 21.5829 287.881 22.1349 287.305C22.6989 286.717 23.4309 286.423 24.3309 286.423C25.2309 286.423 25.9569 286.717 26.5089 287.305C27.0729 287.881 27.3549 288.721 27.3549 289.825ZM25.6449 289.825C25.6449 289.189 25.5249 288.715 25.2849 288.403C25.0569 288.079 24.7389 287.917 24.3309 287.917C23.9229 287.917 23.6049 288.079 23.3769 288.403C23.1489 288.715 23.0349 289.189 23.0349 289.825C23.0349 290.461 23.1489 290.941 23.3769 291.265C23.6049 291.577 23.9229 291.733 24.3309 291.733C24.7389 291.733 25.0569 291.577 25.2849 291.265C25.5249 290.941 25.6449 290.461 25.6449 289.825ZM31.0089 286.693H33.0789L26.0409 299.167H23.9709L31.0089 286.693ZM35.7609 296.053C35.7609 297.145 35.4789 297.985 34.9149 298.573C34.3629 299.161 33.6369 299.455 32.7369 299.455C32.2929 299.455 31.8849 299.377 31.5129 299.221C31.1409 299.077 30.8229 298.861 30.5589 298.573C30.2949 298.285 30.0849 297.931 29.9289 297.511C29.7849 297.079 29.7129 296.593 29.7129 296.053C29.7129 294.949 29.9889 294.109 30.5409 293.533C31.1049 292.945 31.8369 292.651 32.7369 292.651C33.6369 292.651 34.3629 292.945 34.9149 293.533C35.4789 294.109 35.7609 294.949 35.7609 296.053ZM34.0509 296.053C34.0509 295.417 33.9309 294.943 33.6909 294.631C33.4629 294.307 33.1449 294.145 32.7369 294.145C32.3289 294.145 32.0109 294.307 31.7829 294.631C31.5549 294.943 31.4409 295.417 31.4409 296.053C31.4409 296.689 31.5549 297.169 31.7829 297.493C32.0109 297.805 32.3289 297.961 32.7369 297.961C33.1449 297.961 33.4629 297.805 33.6909 297.493C33.9309 297.169 34.0509 296.689 34.0509 296.053Z" fill="#242B30"/>
<path d="M1.62 129.639C2.316 129.363 3.012 129.009 3.708 128.577C4.416 128.145 5.04 127.635 5.58 127.047H7.11V139.521H4.932V129.963C4.608 130.215 4.2 130.461 3.708 130.701C3.216 130.941 2.742 131.139 2.286 131.295L1.62 129.639ZM19.6805 133.275C19.6805 135.375 19.2965 136.989 18.5285 138.117C17.7605 139.233 16.6985 139.791 15.3425 139.791C13.9865 139.791 12.9245 139.233 12.1565 138.117C11.3885 136.989 11.0045 135.375 11.0045 133.275C11.0045 132.231 11.1005 131.307 11.2925 130.503C11.4965 129.687 11.7845 129.003 12.1565 128.451C12.5405 127.899 12.9965 127.479 13.5245 127.191C14.0645 126.903 14.6705 126.759 15.3425 126.759C16.6985 126.759 17.7605 127.323 18.5285 128.451C19.2965 129.567 19.6805 131.175 19.6805 133.275ZM17.4305 133.275C17.4305 132.627 17.3945 132.021 17.3225 131.457C17.2505 130.893 17.1305 130.407 16.9625 129.999C16.8065 129.579 16.5965 129.249 16.3325 129.009C16.0685 128.769 15.7385 128.649 15.3425 128.649C14.9465 128.649 14.6105 128.769 14.3345 129.009C14.0705 129.249 13.8545 129.579 13.6865 129.999C13.5305 130.407 13.4165 130.893 13.3445 131.457C13.2845 132.021 13.2545 132.627 13.2545 133.275C13.2545 133.923 13.2845 134.529 13.3445 135.093C13.4165 135.657 13.5305 136.149 13.6865 136.569C13.8545 136.977 14.0705 137.301 14.3345 137.541C14.6105 137.781 14.9465 137.901 15.3425 137.901C15.7385 137.901 16.0685 137.781 16.3325 137.541C16.5965 137.301 16.8065 136.977 16.9625 136.569C17.1305 136.149 17.2505 135.657 17.3225 135.093C17.3945 134.529 17.4305 133.923 17.4305 133.275ZM27.3549 130.179C27.3549 131.271 27.0729 132.111 26.5089 132.699C25.9569 133.287 25.2309 133.581 24.3309 133.581C23.8869 133.581 23.4789 133.509 23.1069 133.365C22.7349 133.209 22.4169 132.987 22.1529 132.699C21.8889 132.411 21.6789 132.057 21.5229 131.637C21.3789 131.205 21.3069 130.719 21.3069 130.179C21.3069 129.075 21.5829 128.235 22.1349 127.659C22.6989 127.071 23.4309 126.777 24.3309 126.777C25.2309 126.777 25.9569 127.071 26.5089 127.659C27.0729 128.235 27.3549 129.075 27.3549 130.179ZM25.6449 130.179C25.6449 129.543 25.5249 129.069 25.2849 128.757C25.0569 128.433 24.7389 128.271 24.3309 128.271C23.9229 128.271 23.6049 128.433 23.3769 128.757C23.1489 129.069 23.0349 129.543 23.0349 130.179C23.0349 130.815 23.1489 131.295 23.3769 131.619C23.6049 131.931 23.9229 132.087 24.3309 132.087C24.7389 132.087 25.0569 131.931 25.2849 131.619C25.5249 131.295 25.6449 130.815 25.6449 130.179ZM31.0089 127.047H33.0789L26.0409 139.521H23.9709L31.0089 127.047ZM35.7609 136.407C35.7609 137.499 35.4789 138.339 34.9149 138.927C34.3629 139.515 33.6369 139.809 32.7369 139.809C32.2929 139.809 31.8849 139.731 31.5129 139.575C31.1409 139.431 30.8229 139.215 30.5589 138.927C30.2949 138.639 30.0849 138.285 29.9289 137.865C29.7849 137.433 29.7129 136.947 29.7129 136.407C29.7129 135.303 29.9889 134.463 30.5409 133.887C31.1049 133.299 31.8369 133.005 32.7369 133.005C33.6369 133.005 34.3629 133.299 34.9149 133.887C35.4789 134.463 35.7609 135.303 35.7609 136.407ZM34.0509 136.407C34.0509 135.771 33.9309 135.297 33.6909 134.985C33.4629 134.661 33.1449 134.499 32.7369 134.499C32.3289 134.499 32.0109 134.661 31.7829 134.985C31.5549 135.297 31.4409 135.771 31.4409 136.407C31.4409 137.043 31.5549 137.523 31.7829 137.847C32.0109 138.159 32.3289 138.315 32.7369 138.315C33.1449 138.315 33.4629 138.159 33.6909 137.847C33.9309 137.523 34.0509 137.043 34.0509 136.407Z" fill="#242B30"/>
<path d="M2.772 89.4832C2.844 88.5712 3.006 87.6112 3.258 86.6032C3.51 85.5952 3.816 84.6172 4.176 83.6692C4.548 82.7092 4.95 81.8152 5.382 80.9872C5.826 80.1472 6.264 79.4452 6.696 78.8812H0.954V77.0092H9.288V78.6652C8.892 79.1092 8.46 79.7152 7.992 80.4832C7.524 81.2512 7.08 82.1212 6.66 83.0932C6.24 84.0532 5.874 85.0852 5.562 86.1892C5.262 87.2932 5.076 88.3912 5.004 89.4832H2.772ZM17.1245 80.1412C17.1245 81.2332 16.8425 82.0732 16.2785 82.6612C15.7265 83.2492 15.0005 83.5432 14.1005 83.5432C13.6565 83.5432 13.2485 83.4712 12.8765 83.3272C12.5045 83.1712 12.1865 82.9492 11.9225 82.6612C11.6585 82.3732 11.4485 82.0192 11.2925 81.5992C11.1485 81.1672 11.0765 80.6812 11.0765 80.1412C11.0765 79.0372 11.3525 78.1972 11.9045 77.6212C12.4685 77.0332 13.2005 76.7392 14.1005 76.7392C15.0005 76.7392 15.7265 77.0332 16.2785 77.6212C16.8425 78.1972 17.1245 79.0372 17.1245 80.1412ZM15.4145 80.1412C15.4145 79.5052 15.2945 79.0312 15.0545 78.7192C14.8265 78.3952 14.5085 78.2332 14.1005 78.2332C13.6925 78.2332 13.3745 78.3952 13.1465 78.7192C12.9185 79.0312 12.8045 79.5052 12.8045 80.1412C12.8045 80.7772 12.9185 81.2572 13.1465 81.5812C13.3745 81.8932 13.6925 82.0492 14.1005 82.0492C14.5085 82.0492 14.8265 81.8932 15.0545 81.5812C15.2945 81.2572 15.4145 80.7772 15.4145 80.1412ZM20.7785 77.0092H22.8485L15.8105 89.4832H13.7405L20.7785 77.0092ZM25.5305 86.3692C25.5305 87.4612 25.2485 88.3012 24.6845 88.8892C24.1325 89.4772 23.4065 89.7712 22.5065 89.7712C22.0625 89.7712 21.6545 89.6932 21.2825 89.5372C20.9105 89.3932 20.5925 89.1772 20.3285 88.8892C20.0645 88.6012 19.8545 88.2472 19.6985 87.8272C19.5545 87.3952 19.4825 86.9092 19.4825 86.3692C19.4825 85.2652 19.7585 84.4252 20.3105 83.8492C20.8745 83.2612 21.6065 82.9672 22.5065 82.9672C23.4065 82.9672 24.1325 83.2612 24.6845 83.8492C25.2485 84.4252 25.5305 85.2652 25.5305 86.3692ZM23.8205 86.3692C23.8205 85.7332 23.7005 85.2592 23.4605 84.9472C23.2325 84.6232 22.9145 84.4612 22.5065 84.4612C22.0985 84.4612 21.7805 84.6232 21.5525 84.9472C21.3245 85.2592 21.2105 85.7332 21.2105 86.3692C21.2105 87.0052 21.3245 87.4852 21.5525 87.8092C21.7805 88.1212 22.0985 88.2772 22.5065 88.2772C22.9145 88.2772 23.2325 88.1212 23.4605 87.8092C23.7005 87.4852 23.8205 87.0052 23.8205 86.3692Z" fill="#242B30"/>
<path d="M5.076 45.2929C4.728 45.2929 4.392 45.3229 4.068 45.3829C3.744 45.4429 3.45 45.5329 3.186 45.6529C3.174 45.7489 3.162 45.8569 3.15 45.9769C3.15 46.0849 3.15 46.1929 3.15 46.3009C3.15 46.7809 3.18 47.2369 3.24 47.6689C3.312 48.0889 3.426 48.4609 3.582 48.7849C3.75 49.0969 3.972 49.3489 4.248 49.5409C4.536 49.7209 4.89 49.8109 5.31 49.8109C5.658 49.8109 5.952 49.7389 6.192 49.5949C6.444 49.4509 6.648 49.2649 6.804 49.0369C6.96 48.8089 7.074 48.5629 7.146 48.2989C7.218 48.0229 7.254 47.7589 7.254 47.5069C7.254 46.7869 7.08 46.2409 6.732 45.8689C6.384 45.4849 5.832 45.2929 5.076 45.2929ZM5.346 43.5649C6.09 43.5649 6.72 43.6729 7.236 43.8889C7.764 44.0929 8.19 44.3749 8.514 44.7349C8.838 45.0949 9.072 45.5149 9.216 45.9949C9.372 46.4629 9.45 46.9549 9.45 47.4709C9.45 47.9389 9.366 48.4189 9.198 48.9109C9.042 49.4029 8.79 49.8529 8.442 50.2609C8.106 50.6569 7.68 50.9869 7.164 51.2509C6.648 51.5029 6.036 51.6289 5.328 51.6289C3.9 51.6289 2.808 51.1609 2.052 50.2249C1.308 49.2769 0.936 47.9749 0.936 46.3189C0.936 45.1189 1.11 44.0569 1.458 43.1329C1.818 42.1969 2.322 41.4109 2.97 40.7749C3.63 40.1389 4.422 39.6589 5.346 39.3349C6.282 38.9989 7.332 38.8249 8.496 38.8129L8.622 40.6129C7.974 40.6249 7.368 40.6969 6.804 40.8289C6.24 40.9489 5.736 41.1409 5.292 41.4049C4.848 41.6689 4.464 42.0109 4.14 42.4309C3.828 42.8509 3.588 43.3669 3.42 43.9789C4.008 43.7029 4.65 43.5649 5.346 43.5649ZM17.1245 42.0169C17.1245 43.1089 16.8425 43.9489 16.2785 44.5369C15.7265 45.1249 15.0005 45.4189 14.1005 45.4189C13.6565 45.4189 13.2485 45.3469 12.8765 45.2029C12.5045 45.0469 12.1865 44.8249 11.9225 44.5369C11.6585 44.2489 11.4485 43.8949 11.2925 43.4749C11.1485 43.0429 11.0765 42.5569 11.0765 42.0169C11.0765 40.9129 11.3525 40.0729 11.9045 39.4969C12.4685 38.9089 13.2005 38.6149 14.1005 38.6149C15.0005 38.6149 15.7265 38.9089 16.2785 39.4969C16.8425 40.0729 17.1245 40.9129 17.1245 42.0169ZM15.4145 42.0169C15.4145 41.3809 15.2945 40.9069 15.0545 40.5949C14.8265 40.2709 14.5085 40.1089 14.1005 40.1089C13.6925 40.1089 13.3745 40.2709 13.1465 40.5949C12.9185 40.9069 12.8045 41.3809 12.8045 42.0169C12.8045 42.6529 12.9185 43.1329 13.1465 43.4569C13.3745 43.7689 13.6925 43.9249 14.1005 43.9249C14.5085 43.9249 14.8265 43.7689 15.0545 43.4569C15.2945 43.1329 15.4145 42.6529 15.4145 42.0169ZM20.7785 38.8849H22.8485L15.8105 51.3589H13.7405L20.7785 38.8849ZM25.5305 48.2449C25.5305 49.3369 25.2485 50.1769 24.6845 50.7649C24.1325 51.3529 23.4065 51.6469 22.5065 51.6469C22.0625 51.6469 21.6545 51.5689 21.2825 51.4129C20.9105 51.2689 20.5925 51.0529 20.3285 50.7649C20.0645 50.4769 19.8545 50.1229 19.6985 49.7029C19.5545 49.2709 19.4825 48.7849 19.4825 48.2449C19.4825 47.1409 19.7585 46.3009 20.3105 45.7249C20.8745 45.1369 21.6065 44.8429 22.5065 44.8429C23.4065 44.8429 24.1325 45.1369 24.6845 45.7249C25.2485 46.3009 25.5305 47.1409 25.5305 48.2449ZM23.8205 48.2449C23.8205 47.6089 23.7005 47.1349 23.4605 46.8229C23.2325 46.4989 22.9145 46.3369 22.5065 46.3369C22.0985 46.3369 21.7805 46.4989 21.5525 46.8229C21.3245 47.1349 21.2105 47.6089 21.2105 48.2449C21.2105 48.8809 21.3245 49.3609 21.5525 49.6849C21.7805 49.9969 22.0985 50.1529 22.5065 50.1529C22.9145 50.1529 23.2325 49.9969 23.4605 49.6849C23.7005 49.3609 23.8205 48.8809 23.8205 48.2449Z" fill="#242B30"/>
<path d="M6.894 14.436C6.894 14.04 6.816 13.686 6.66 13.374C6.504 13.062 6.228 12.798 5.832 12.582C5.448 12.366 4.926 12.204 4.266 12.096C3.618 11.988 2.796 11.934 1.8 11.934C1.932 10.782 2.034 9.69 2.106 8.658C2.178 7.614 2.238 6.57 2.286 5.526H8.658V7.362H4.14C4.128 7.566 4.11 7.8 4.086 8.064C4.074 8.316 4.056 8.574 4.032 8.838C4.02 9.102 4.002 9.354 3.978 9.594C3.954 9.834 3.93 10.038 3.906 10.206C5.682 10.302 6.99 10.71 7.83 11.43C8.682 12.138 9.108 13.11 9.108 14.346C9.108 14.91 9.012 15.432 8.82 15.912C8.628 16.392 8.334 16.806 7.938 17.154C7.542 17.502 7.044 17.778 6.444 17.982C5.844 18.174 5.142 18.27 4.338 18.27C4.014 18.27 3.684 18.246 3.348 18.198C3.012 18.15 2.688 18.09 2.376 18.018C2.076 17.958 1.806 17.892 1.566 17.82C1.326 17.748 1.146 17.682 1.026 17.622L1.44 15.786C1.692 15.906 2.052 16.038 2.52 16.182C3 16.314 3.582 16.38 4.266 16.38C4.734 16.38 5.136 16.332 5.472 16.236C5.808 16.128 6.078 15.984 6.282 15.804C6.498 15.624 6.654 15.42 6.75 15.192C6.846 14.952 6.894 14.7 6.894 14.436ZM17.1245 8.658C17.1245 9.75 16.8425 10.59 16.2785 11.178C15.7265 11.766 15.0005 12.06 14.1005 12.06C13.6565 12.06 13.2485 11.988 12.8765 11.844C12.5045 11.688 12.1865 11.466 11.9225 11.178C11.6585 10.89 11.4485 10.536 11.2925 10.116C11.1485 9.684 11.0765 9.198 11.0765 8.658C11.0765 7.554 11.3525 6.714 11.9045 6.138C12.4685 5.55 13.2005 5.256 14.1005 5.256C15.0005 5.256 15.7265 5.55 16.2785 6.138C16.8425 6.714 17.1245 7.554 17.1245 8.658ZM15.4145 8.658C15.4145 8.022 15.2945 7.548 15.0545 7.236C14.8265 6.912 14.5085 6.75 14.1005 6.75C13.6925 6.75 13.3745 6.912 13.1465 7.236C12.9185 7.548 12.8045 8.022 12.8045 8.658C12.8045 9.294 12.9185 9.774 13.1465 10.098C13.3745 10.41 13.6925 10.566 14.1005 10.566C14.5085 10.566 14.8265 10.41 15.0545 10.098C15.2945 9.774 15.4145 9.294 15.4145 8.658ZM20.7785 5.526H22.8485L15.8105 18H13.7405L20.7785 5.526ZM25.5305 14.886C25.5305 15.978 25.2485 16.818 24.6845 17.406C24.1325 17.994 23.4065 18.288 22.5065 18.288C22.0625 18.288 21.6545 18.21 21.2825 18.054C20.9105 17.91 20.5925 17.694 20.3285 17.406C20.0645 17.118 19.8545 16.764 19.6985 16.344C19.5545 15.912 19.4825 15.426 19.4825 14.886C19.4825 13.782 19.7585 12.942 20.3105 12.366C20.8745 11.778 21.6065 11.484 22.5065 11.484C23.4065 11.484 24.1325 11.778 24.6845 12.366C25.2485 12.942 25.5305 13.782 25.5305 14.886ZM23.8205 14.886C23.8205 14.25 23.7005 13.776 23.4605 13.464C23.2325 13.14 22.9145 12.978 22.5065 12.978C22.0985 12.978 21.7805 13.14 21.5525 13.464C21.3245 13.776 21.2105 14.25 21.2105 14.886C21.2105 15.522 21.3245 16.002 21.5525 16.326C21.7805 16.638 22.0985 16.794 22.5065 16.794C22.9145 16.794 23.2325 16.638 23.4605 16.326C23.7005 16.002 23.8205 15.522 23.8205 14.886Z" fill="#242B30"/>
<path d="M0 25.6147H207.897L227.555 45.2726" stroke="#4F4F4F"/>
<path d="M0 59.5693H187.644" stroke="#4F4F4F"/>
<path d="M0 97.6938H95.9067H133.435" stroke="#4F4F4F"/>
<path d="M0 147.732H73.866L97.6938 171.56" stroke="#4F4F4F"/>
<path d="M0 314.526H103.651L127.478 290.699" stroke="#4F4F4F"/>
<path d="M358.608 314.526H488.469" stroke="#4F4F4F"/>
</svg>
