<svg width="636" height="341" viewBox="0 0 636 341" fill="none" xmlns="http://www.w3.org/2000/svg">
<path d="M434.68 41C434.84 39.0533 435.173 37.0267 435.68 34.92C436.187 32.8133 436.8 30.7467 437.52 28.72C438.267 26.6933 439.093 24.7867 440 23C440.907 21.1867 441.827 19.6267 442.76 18.32H430.72V13.24H450.12V17.56C449.267 18.4933 448.32 19.7867 447.28 21.44C446.267 23.0933 445.293 24.9733 444.36 27.08C443.453 29.16 442.653 31.4 441.96 33.8C441.293 36.2 440.88 38.6 440.72 41H434.68ZM473.094 27.08C473.094 31.7467 472.201 35.3333 470.414 37.84C468.654 40.32 466.214 41.56 463.094 41.56C459.974 41.56 457.521 40.32 455.734 37.84C453.974 35.3333 453.094 31.7467 453.094 27.08C453.094 24.76 453.321 22.7067 453.774 20.92C454.254 19.1333 454.934 17.6267 455.814 16.4C456.694 15.1733 457.748 14.24 458.974 13.6C460.201 12.96 461.574 12.64 463.094 12.64C466.214 12.64 468.654 13.8933 470.414 16.4C472.201 18.88 473.094 22.44 473.094 27.08ZM467.014 27.08C467.014 25.6933 466.948 24.44 466.814 23.32C466.681 22.1733 466.468 21.1867 466.174 20.36C465.881 19.5333 465.481 18.8933 464.974 18.44C464.468 17.9867 463.841 17.76 463.094 17.76C462.348 17.76 461.721 17.9867 461.214 18.44C460.734 18.8933 460.334 19.5333 460.014 20.36C459.721 21.1867 459.508 22.1733 459.374 23.32C459.241 24.44 459.174 25.6933 459.174 27.08C459.174 28.4667 459.241 29.7333 459.374 30.88C459.508 32.0267 459.721 33.0133 460.014 33.84C460.334 34.6667 460.734 35.3067 461.214 35.76C461.721 36.2133 462.348 36.44 463.094 36.44C463.841 36.44 464.468 36.2133 464.974 35.76C465.481 35.3067 465.881 34.6667 466.174 33.84C466.468 33.0133 466.681 32.0267 466.814 30.88C466.948 29.7333 467.014 28.4667 467.014 27.08ZM490.029 20.4C490.029 22.9067 489.389 24.8267 488.109 26.16C486.829 27.4933 485.109 28.16 482.949 28.16C480.789 28.16 479.069 27.4933 477.789 26.16C476.509 24.8267 475.869 22.9067 475.869 20.4C475.869 17.8933 476.509 15.9733 477.789 14.64C479.069 13.3067 480.789 12.64 482.949 12.64C485.109 12.64 486.829 13.3067 488.109 14.64C489.389 15.9733 490.029 17.8933 490.029 20.4ZM485.509 20.4C485.509 19.04 485.269 18.0533 484.789 17.44C484.309 16.8267 483.695 16.52 482.949 16.52C482.175 16.52 481.549 16.8267 481.069 17.44C480.615 18.0533 480.389 19.04 480.389 20.4C480.389 21.76 480.615 22.76 481.069 23.4C481.549 24.0133 482.175 24.32 482.949 24.32C483.695 24.32 484.309 24.0133 484.789 23.4C485.269 22.76 485.509 21.76 485.509 20.4ZM497.829 13.28H503.389L487.749 41H482.189L497.829 13.28ZM509.789 33.88C509.789 36.3867 509.149 38.3067 507.869 39.64C506.589 40.9733 504.869 41.64 502.709 41.64C500.549 41.64 498.829 40.9733 497.549 39.64C496.269 38.3067 495.629 36.3867 495.629 33.88C495.629 31.3733 496.269 29.4533 497.549 28.12C498.829 26.7867 500.549 26.12 502.709 26.12C504.869 26.12 506.589 26.7867 507.869 28.12C509.149 29.4533 509.789 31.3733 509.789 33.88ZM505.269 33.88C505.269 32.52 505.029 31.5333 504.549 30.92C504.069 30.3067 503.455 30 502.709 30C501.935 30 501.309 30.3067 500.829 30.92C500.375 31.5333 500.149 32.52 500.149 33.88C500.149 35.24 500.375 36.24 500.829 36.88C501.309 37.4933 501.935 37.8 502.709 37.8C503.455 37.8 504.069 37.4933 504.549 36.88C505.029 36.24 505.269 35.24 505.269 33.88Z" fill="white"/>
<path d="M19.84 19.56C19.84 20.5733 19.64 21.5467 19.24 22.48C18.84 23.4133 18.32 24.32 17.68 25.2C17.04 26.0533 16.32 26.88 15.52 27.68C14.72 28.48 13.9333 29.24 13.16 29.96C12.76 30.3333 12.32 30.76 11.84 31.24C11.3867 31.6933 10.9467 32.16 10.52 32.64C10.0933 33.12 9.70667 33.5733 9.36 34C9.04 34.4 8.84 34.7333 8.76 35H20.68V40H2.2C2.14667 39.7067 2.12 39.3333 2.12 38.88C2.12 38.4267 2.12 38.1067 2.12 37.92C2.12 36.64 2.32 35.4667 2.72 34.4C3.14667 33.3333 3.69333 32.3467 4.36 31.44C5.02667 30.5067 5.77333 29.64 6.6 28.84C7.45333 28.04 8.29333 27.24 9.12 26.44C9.76 25.8267 10.36 25.2533 10.92 24.72C11.48 24.16 11.9733 23.6267 12.4 23.12C12.8267 22.5867 13.16 22.0667 13.4 21.56C13.64 21.0267 13.76 20.4933 13.76 19.96C13.76 18.7867 13.4267 17.96 12.76 17.48C12.0933 17 11.2667 16.76 10.28 16.76C9.56 16.76 8.88 16.88 8.24 17.12C7.62667 17.3333 7.05333 17.6 6.52 17.92C6.01333 18.2133 5.57333 18.52 5.2 18.84C4.82667 19.1333 4.54667 19.3733 4.36 19.56L1.4 15.4C2.57333 14.3067 3.93333 13.4133 5.48 12.72C7.05333 12 8.73333 11.64 10.52 11.64C12.1467 11.64 13.5467 11.8267 14.72 12.2C15.8933 12.5733 16.8533 13.1067 17.6 13.8C18.3733 14.4667 18.9333 15.2933 19.28 16.28C19.6533 17.24 19.84 18.3333 19.84 19.56ZM44.0944 26.08C44.0944 30.7467 43.201 34.3333 41.4144 36.84C39.6544 39.32 37.2144 40.56 34.0944 40.56C30.9744 40.56 28.521 39.32 26.7344 36.84C24.9744 34.3333 24.0944 30.7467 24.0944 26.08C24.0944 23.76 24.321 21.7067 24.7744 19.92C25.2544 18.1333 25.9344 16.6267 26.8144 15.4C27.6944 14.1733 28.7477 13.24 29.9744 12.6C31.201 11.96 32.5744 11.64 34.0944 11.64C37.2144 11.64 39.6544 12.8933 41.4144 15.4C43.201 17.88 44.0944 21.44 44.0944 26.08ZM38.0144 26.08C38.0144 24.6933 37.9477 23.44 37.8144 22.32C37.681 21.1733 37.4677 20.1867 37.1744 19.36C36.881 18.5333 36.481 17.8933 35.9744 17.44C35.4677 16.9867 34.841 16.76 34.0944 16.76C33.3477 16.76 32.721 16.9867 32.2144 17.44C31.7344 17.8933 31.3344 18.5333 31.0144 19.36C30.721 20.1867 30.5077 21.1733 30.3744 22.32C30.241 23.44 30.1744 24.6933 30.1744 26.08C30.1744 27.4667 30.241 28.7333 30.3744 29.88C30.5077 31.0267 30.721 32.0133 31.0144 32.84C31.3344 33.6667 31.7344 34.3067 32.2144 34.76C32.721 35.2133 33.3477 35.44 34.0944 35.44C34.841 35.44 35.4677 35.2133 35.9744 34.76C36.481 34.3067 36.881 33.6667 37.1744 32.84C37.4677 32.0133 37.681 31.0267 37.8144 29.88C37.9477 28.7333 38.0144 27.4667 38.0144 26.08ZM61.0288 19.4C61.0288 21.9067 60.3888 23.8267 59.1088 25.16C57.8288 26.4933 56.1088 27.16 53.9488 27.16C51.7888 27.16 50.0688 26.4933 48.7888 25.16C47.5088 23.8267 46.8688 21.9067 46.8688 19.4C46.8688 16.8933 47.5088 14.9733 48.7888 13.64C50.0688 12.3067 51.7888 11.64 53.9488 11.64C56.1088 11.64 57.8288 12.3067 59.1088 13.64C60.3888 14.9733 61.0288 16.8933 61.0288 19.4ZM56.5088 19.4C56.5088 18.04 56.2688 17.0533 55.7888 16.44C55.3088 15.8267 54.6954 15.52 53.9488 15.52C53.1754 15.52 52.5488 15.8267 52.0688 16.44C51.6154 17.0533 51.3888 18.04 51.3888 19.4C51.3888 20.76 51.6154 21.76 52.0688 22.4C52.5488 23.0133 53.1754 23.32 53.9488 23.32C54.6954 23.32 55.3088 23.0133 55.7888 22.4C56.2688 21.76 56.5088 20.76 56.5088 19.4ZM68.8288 12.28H74.3888L58.7488 40H53.1888L68.8288 12.28ZM80.7888 32.88C80.7888 35.3867 80.1488 37.3067 78.8688 38.64C77.5888 39.9733 75.8688 40.64 73.7088 40.64C71.5488 40.64 69.8288 39.9733 68.5488 38.64C67.2688 37.3067 66.6288 35.3867 66.6288 32.88C66.6288 30.3733 67.2688 28.4533 68.5488 27.12C69.8288 25.7867 71.5488 25.12 73.7088 25.12C75.8688 25.12 77.5888 25.7867 78.8688 27.12C80.1488 28.4533 80.7888 30.3733 80.7888 32.88ZM76.2688 32.88C76.2688 31.52 76.0288 30.5333 75.5488 29.92C75.0688 29.3067 74.4554 29 73.7088 29C72.9354 29 72.3088 29.3067 71.8288 29.92C71.3754 30.5333 71.1488 31.52 71.1488 32.88C71.1488 34.24 71.3754 35.24 71.8288 35.88C72.3088 36.4933 72.9354 36.8 73.7088 36.8C74.4554 36.8 75.0688 36.4933 75.5488 35.88C76.0288 35.24 76.2688 34.24 76.2688 32.88Z" fill="white"/>
<path d="M2.8 140.04C3.57333 139.72 4.37333 139.36 5.2 138.96C6.05333 138.533 6.88 138.08 7.68 137.6C8.48 137.093 9.24 136.573 9.96 136.04C10.7067 135.48 11.3733 134.893 11.96 134.28H16.12V162H10.16V142.04C9.36 142.573 8.46667 143.067 7.48 143.52C6.49333 143.947 5.53333 144.32 4.6 144.64L2.8 140.04ZM44.0944 148.08C44.0944 152.747 43.201 156.333 41.4144 158.84C39.6544 161.32 37.2144 162.56 34.0944 162.56C30.9744 162.56 28.521 161.32 26.7344 158.84C24.9744 156.333 24.0944 152.747 24.0944 148.08C24.0944 145.76 24.321 143.707 24.7744 141.92C25.2544 140.133 25.9344 138.627 26.8144 137.4C27.6944 136.173 28.7477 135.24 29.9744 134.6C31.201 133.96 32.5744 133.64 34.0944 133.64C37.2144 133.64 39.6544 134.893 41.4144 137.4C43.201 139.88 44.0944 143.44 44.0944 148.08ZM38.0144 148.08C38.0144 146.693 37.9477 145.44 37.8144 144.32C37.681 143.173 37.4677 142.187 37.1744 141.36C36.881 140.533 36.481 139.893 35.9744 139.44C35.4677 138.987 34.841 138.76 34.0944 138.76C33.3477 138.76 32.721 138.987 32.2144 139.44C31.7344 139.893 31.3344 140.533 31.0144 141.36C30.721 142.187 30.5077 143.173 30.3744 144.32C30.241 145.44 30.1744 146.693 30.1744 148.08C30.1744 149.467 30.241 150.733 30.3744 151.88C30.5077 153.027 30.721 154.013 31.0144 154.84C31.3344 155.667 31.7344 156.307 32.2144 156.76C32.721 157.213 33.3477 157.44 34.0944 157.44C34.841 157.44 35.4677 157.213 35.9744 156.76C36.481 156.307 36.881 155.667 37.1744 154.84C37.4677 154.013 37.681 153.027 37.8144 151.88C37.9477 150.733 38.0144 149.467 38.0144 148.08ZM61.0288 141.4C61.0288 143.907 60.3888 145.827 59.1088 147.16C57.8288 148.493 56.1088 149.16 53.9488 149.16C51.7888 149.16 50.0688 148.493 48.7888 147.16C47.5088 145.827 46.8688 143.907 46.8688 141.4C46.8688 138.893 47.5088 136.973 48.7888 135.64C50.0688 134.307 51.7888 133.64 53.9488 133.64C56.1088 133.64 57.8288 134.307 59.1088 135.64C60.3888 136.973 61.0288 138.893 61.0288 141.4ZM56.5088 141.4C56.5088 140.04 56.2688 139.053 55.7888 138.44C55.3088 137.827 54.6954 137.52 53.9488 137.52C53.1754 137.52 52.5488 137.827 52.0688 138.44C51.6154 139.053 51.3888 140.04 51.3888 141.4C51.3888 142.76 51.6154 143.76 52.0688 144.4C52.5488 145.013 53.1754 145.32 53.9488 145.32C54.6954 145.32 55.3088 145.013 55.7888 144.4C56.2688 143.76 56.5088 142.76 56.5088 141.4ZM68.8288 134.28H74.3888L58.7488 162H53.1888L68.8288 134.28ZM80.7888 154.88C80.7888 157.387 80.1488 159.307 78.8688 160.64C77.5888 161.973 75.8688 162.64 73.7088 162.64C71.5488 162.64 69.8288 161.973 68.5488 160.64C67.2688 159.307 66.6288 157.387 66.6288 154.88C66.6288 152.373 67.2688 150.453 68.5488 149.12C69.8288 147.787 71.5488 147.12 73.7088 147.12C75.8688 147.12 77.5888 147.787 78.8688 149.12C80.1488 150.453 80.7888 152.373 80.7888 154.88ZM76.2688 154.88C76.2688 153.52 76.0288 152.533 75.5488 151.92C75.0688 151.307 74.4554 151 73.7088 151C72.9354 151 72.3088 151.307 71.8288 151.92C71.3754 152.533 71.1488 153.52 71.1488 154.88C71.1488 156.24 71.3754 157.24 71.8288 157.88C72.3088 158.493 72.9354 158.8 73.7088 158.8C74.4554 158.8 75.0688 158.493 75.5488 157.88C76.0288 157.24 76.2688 156.24 76.2688 154.88Z" fill="white"/>
<path d="M0 54.9995H200.431L255 109.569" stroke="white"/>
<path d="M600 55H431.569L377 109.57" stroke="white"/>
<path d="M0 173H200" stroke="white"/>
<path d="M334 49C361.11 49 387.692 56.4459 410.807 70.5145C433.922 84.5831 452.67 104.726 464.978 128.717C477.286 152.708 482.674 179.612 480.547 206.455C478.42 233.298 468.86 259.033 452.926 280.817C436.991 302.6 415.301 319.582 390.254 329.886C365.208 340.19 337.78 343.415 311.004 339.202C284.228 334.99 259.146 323.506 238.531 306.019C217.916 288.532 202.572 265.724 194.195 240.116L307.424 203.576C309.016 208.444 311.933 212.78 315.852 216.104C319.771 219.428 324.539 221.611 329.629 222.412C334.719 223.213 339.932 222.6 344.694 220.641C349.455 218.682 353.578 215.454 356.607 211.313C359.636 207.172 361.453 202.28 361.858 197.178C362.262 192.075 361.238 186.961 358.898 182.4C356.558 177.84 352.995 174.01 348.601 171.336C344.207 168.662 339.153 167.246 334 167.246L334 49Z" fill="#589CFF"/>
<path d="M188.015 127.55C198.443 102.323 215.776 80.5004 238.052 64.5558C260.327 48.6111 286.653 39.1814 314.047 37.335L319.693 119.96C307.837 120.759 296.444 124.84 286.804 131.741C277.164 138.641 269.662 148.085 265.149 159.003L188.015 127.55Z" fill="#2B80FF"/>
<path d="M181.197 223.876C174.847 197.876 175.716 170.635 183.711 145.092L283.504 176.326C281.196 183.699 280.946 191.562 282.779 199.067L181.197 223.876Z" fill="#91BEFF"/>
<path d="M527.925 10.605V21H526.905V11.49H521.37V21H520.35V10.605H527.925ZM537.174 17.13C537.174 17.74 537.084 18.295 536.904 18.795C536.734 19.295 536.489 19.72 536.169 20.07C535.859 20.42 535.489 20.695 535.059 20.895C534.629 21.085 534.154 21.18 533.634 21.18C533.114 21.18 532.639 21.085 532.209 20.895C531.779 20.695 531.404 20.42 531.084 20.07C530.774 19.72 530.529 19.295 530.349 18.795C530.179 18.295 530.094 17.74 530.094 17.13C530.094 16.52 530.179 15.965 530.349 15.465C530.529 14.965 530.774 14.54 531.084 14.19C531.404 13.83 531.779 13.555 532.209 13.365C532.639 13.165 533.114 13.065 533.634 13.065C534.154 13.065 534.629 13.165 535.059 13.365C535.489 13.555 535.859 13.83 536.169 14.19C536.489 14.54 536.734 14.965 536.904 15.465C537.084 15.965 537.174 16.52 537.174 17.13ZM536.139 17.13C536.139 16.16 535.914 15.39 535.464 14.82C535.014 14.24 534.404 13.95 533.634 13.95C532.864 13.95 532.254 14.24 531.804 14.82C531.354 15.39 531.129 16.16 531.129 17.13C531.129 18.1 531.354 18.87 531.804 19.44C532.254 20.01 532.864 20.295 533.634 20.295C534.404 20.295 535.014 20.01 535.464 19.44C535.914 18.87 536.139 18.1 536.139 17.13ZM541.794 13.08C542.094 13.08 542.429 13.1 542.799 13.14C543.179 13.17 543.534 13.255 543.864 13.395C544.194 13.525 544.469 13.735 544.689 14.025C544.919 14.305 545.034 14.69 545.034 15.18C545.034 15.56 544.924 15.9 544.704 16.2C544.484 16.49 544.184 16.705 543.804 16.845C544.364 16.995 544.769 17.235 545.019 17.565C545.269 17.895 545.394 18.3 545.394 18.78C545.394 19.3 545.289 19.72 545.079 20.04C544.869 20.35 544.589 20.59 544.239 20.76C543.899 20.92 543.509 21.025 543.069 21.075C542.639 21.125 542.199 21.15 541.749 21.15C541.209 21.15 540.734 21.115 540.324 21.045C539.924 20.975 539.579 20.9 539.289 20.82V13.41C539.539 13.33 539.869 13.255 540.279 13.185C540.689 13.115 541.194 13.08 541.794 13.08ZM540.264 16.5H542.034C542.634 16.5 543.119 16.4 543.489 16.2C543.859 16 544.044 15.665 544.044 15.195C544.044 14.895 543.979 14.66 543.849 14.49C543.719 14.32 543.549 14.195 543.339 14.115C543.129 14.025 542.889 13.97 542.619 13.95C542.349 13.92 542.079 13.905 541.809 13.905C541.479 13.905 541.164 13.925 540.864 13.965C540.564 13.995 540.364 14.025 540.264 14.055V16.5ZM540.264 17.31V20.16C540.314 20.18 540.394 20.2 540.504 20.22C540.624 20.23 540.754 20.245 540.894 20.265C541.044 20.275 541.199 20.285 541.359 20.295C541.529 20.305 541.689 20.31 541.839 20.31C542.179 20.31 542.504 20.29 542.814 20.25C543.124 20.21 543.394 20.135 543.624 20.025C543.854 19.905 544.039 19.75 544.179 19.56C544.319 19.36 544.389 19.1 544.389 18.78C544.389 18.5 544.329 18.265 544.209 18.075C544.099 17.885 543.939 17.735 543.729 17.625C543.529 17.515 543.289 17.435 543.009 17.385C542.739 17.335 542.444 17.31 542.124 17.31H540.264ZM552.473 13.245V14.07H549.923V21H548.948V14.07H546.413V13.245H552.473ZM560.596 17.13C560.596 17.74 560.506 18.295 560.326 18.795C560.156 19.295 559.911 19.72 559.591 20.07C559.281 20.42 558.911 20.695 558.481 20.895C558.051 21.085 557.576 21.18 557.056 21.18C556.536 21.18 556.061 21.085 555.631 20.895C555.201 20.695 554.826 20.42 554.506 20.07C554.196 19.72 553.951 19.295 553.771 18.795C553.601 18.295 553.516 17.74 553.516 17.13C553.516 16.52 553.601 15.965 553.771 15.465C553.951 14.965 554.196 14.54 554.506 14.19C554.826 13.83 555.201 13.555 555.631 13.365C556.061 13.165 556.536 13.065 557.056 13.065C557.576 13.065 558.051 13.165 558.481 13.365C558.911 13.555 559.281 13.83 559.591 14.19C559.911 14.54 560.156 14.965 560.326 15.465C560.506 15.965 560.596 16.52 560.596 17.13ZM559.561 17.13C559.561 16.16 559.336 15.39 558.886 14.82C558.436 14.24 557.826 13.95 557.056 13.95C556.286 13.95 555.676 14.24 555.226 14.82C554.776 15.39 554.551 16.16 554.551 17.13C554.551 18.1 554.776 18.87 555.226 19.44C555.676 20.01 556.286 20.295 557.056 20.295C557.826 20.295 558.436 20.01 558.886 19.44C559.336 18.87 559.561 18.1 559.561 17.13ZM563.687 19.605C563.777 19.675 563.887 19.75 564.017 19.83C564.157 19.91 564.317 19.985 564.497 20.055C564.677 20.125 564.872 20.185 565.082 20.235C565.292 20.275 565.512 20.295 565.742 20.295C566.222 20.295 566.622 20.215 566.942 20.055C567.272 19.885 567.537 19.66 567.737 19.38C567.937 19.09 568.082 18.755 568.172 18.375C568.262 17.985 568.307 17.575 568.307 17.145C568.307 16.125 568.052 15.345 567.542 14.805C567.032 14.255 566.357 13.98 565.517 13.98C565.037 13.98 564.647 14.005 564.347 14.055C564.057 14.095 563.837 14.14 563.687 14.19V19.605ZM563.687 23.775H562.712V13.515C563.002 13.415 563.372 13.32 563.822 13.23C564.272 13.14 564.842 13.095 565.532 13.095C566.102 13.095 566.617 13.19 567.077 13.38C567.547 13.56 567.947 13.825 568.277 14.175C568.617 14.525 568.877 14.95 569.057 15.45C569.247 15.95 569.342 16.515 569.342 17.145C569.342 17.735 569.262 18.28 569.102 18.78C568.952 19.27 568.727 19.695 568.427 20.055C568.127 20.405 567.757 20.68 567.317 20.88C566.887 21.08 566.392 21.18 565.832 21.18C565.322 21.18 564.877 21.11 564.497 20.97C564.127 20.82 563.857 20.68 563.687 20.55V23.775ZM577.622 21H576.647V17.385H572.432V21H571.457V13.245H572.432V16.56H576.647V13.245H577.622V21ZM580.202 13.245H581.177V16.35C581.357 16.3 581.622 16.25 581.972 16.2C582.322 16.14 582.672 16.11 583.022 16.11C583.412 16.11 583.787 16.155 584.147 16.245C584.517 16.335 584.837 16.48 585.107 16.68C585.387 16.88 585.607 17.14 585.767 17.46C585.937 17.78 586.022 18.17 586.022 18.63C586.022 19.09 585.937 19.48 585.767 19.8C585.607 20.12 585.387 20.385 585.107 20.595C584.827 20.795 584.492 20.94 584.102 21.03C583.722 21.12 583.317 21.165 582.887 21.165C582.627 21.165 582.362 21.155 582.092 21.135C581.832 21.115 581.582 21.09 581.342 21.06C581.112 21.03 580.897 20.995 580.697 20.955C580.497 20.915 580.332 20.87 580.202 20.82V13.245ZM582.887 20.295C583.517 20.295 584.027 20.165 584.417 19.905C584.817 19.645 585.017 19.22 585.017 18.63C585.017 18.35 584.962 18.105 584.852 17.895C584.742 17.685 584.592 17.515 584.402 17.385C584.222 17.245 584.007 17.145 583.757 17.085C583.517 17.015 583.262 16.98 582.992 16.98C582.682 16.98 582.367 16.995 582.047 17.025C581.727 17.055 581.437 17.115 581.177 17.205V20.145C581.307 20.175 581.532 20.21 581.852 20.25C582.172 20.28 582.517 20.295 582.887 20.295ZM588.632 21H587.657V13.245H588.632V21ZM590.753 17.115C590.753 16.435 590.848 15.845 591.038 15.345C591.238 14.835 591.493 14.41 591.803 14.07C592.123 13.73 592.483 13.48 592.883 13.32C593.293 13.15 593.713 13.065 594.143 13.065C595.093 13.065 595.848 13.375 596.408 13.995C596.978 14.615 597.263 15.57 597.263 16.86C597.263 16.94 597.258 17.02 597.248 17.1C597.248 17.18 597.243 17.255 597.233 17.325H591.788C591.818 18.275 592.053 19.005 592.493 19.515C592.933 20.025 593.633 20.28 594.593 20.28C595.123 20.28 595.543 20.23 595.853 20.13C596.163 20.03 596.388 19.945 596.528 19.875L596.708 20.715C596.568 20.795 596.303 20.89 595.913 21C595.533 21.11 595.083 21.165 594.563 21.165C593.883 21.165 593.303 21.065 592.823 20.865C592.343 20.665 591.948 20.385 591.638 20.025C591.328 19.665 591.103 19.24 590.963 18.75C590.823 18.25 590.753 17.705 590.753 17.115ZM596.258 16.5C596.238 15.69 596.048 15.06 595.688 14.61C595.328 14.16 594.818 13.935 594.158 13.935C593.808 13.935 593.493 14.005 593.213 14.145C592.943 14.285 592.703 14.475 592.493 14.715C592.293 14.945 592.133 15.215 592.013 15.525C591.903 15.835 591.838 16.16 591.818 16.5H596.258ZM522.09 40.295C522.79 40.295 523.34 40.18 523.74 39.95C524.14 39.71 524.34 39.355 524.34 38.885C524.34 38.545 524.265 38.275 524.115 38.075C523.965 37.875 523.775 37.72 523.545 37.61C523.325 37.5 523.085 37.43 522.825 37.4C522.575 37.36 522.345 37.34 522.135 37.34H521.055V36.515H522.06C522.24 36.515 522.445 36.5 522.675 36.47C522.915 36.44 523.135 36.38 523.335 36.29C523.535 36.2 523.705 36.075 523.845 35.915C523.985 35.745 524.055 35.525 524.055 35.255C524.055 34.995 523.995 34.78 523.875 34.61C523.765 34.44 523.615 34.305 523.425 34.205C523.235 34.105 523.015 34.035 522.765 33.995C522.525 33.955 522.28 33.935 522.03 33.935C521.46 33.935 521.01 33.995 520.68 34.115C520.35 34.225 520.125 34.31 520.005 34.37L519.78 33.5C519.92 33.43 520.185 33.345 520.575 33.245C520.965 33.135 521.45 33.08 522.03 33.08C523.02 33.08 523.77 33.26 524.28 33.62C524.79 33.98 525.045 34.515 525.045 35.225C525.045 35.665 524.915 36.025 524.655 36.305C524.395 36.575 524.09 36.765 523.74 36.875C524.23 37.015 524.62 37.25 524.91 37.58C525.2 37.91 525.345 38.345 525.345 38.885C525.345 39.655 525.07 40.23 524.52 40.61C523.97 40.99 523.165 41.18 522.105 41.18C521.395 41.18 520.825 41.12 520.395 41C519.965 40.88 519.69 40.79 519.57 40.73L519.825 39.845C519.855 39.865 519.92 39.9 520.02 39.95C520.13 39.99 520.28 40.04 520.47 40.1C520.66 40.15 520.89 40.195 521.16 40.235C521.43 40.275 521.74 40.295 522.09 40.295ZM529.883 40.295C530.263 40.295 530.593 40.285 530.873 40.265C531.163 40.235 531.408 40.2 531.608 40.16V37.43C531.498 37.38 531.323 37.33 531.083 37.28C530.843 37.22 530.513 37.19 530.093 37.19C529.853 37.19 529.603 37.21 529.343 37.25C529.083 37.28 528.843 37.355 528.623 37.475C528.403 37.585 528.223 37.74 528.083 37.94C527.943 38.14 527.873 38.405 527.873 38.735C527.873 39.025 527.918 39.27 528.008 39.47C528.108 39.67 528.243 39.83 528.413 39.95C528.593 40.07 528.803 40.16 529.043 40.22C529.293 40.27 529.573 40.295 529.883 40.295ZM529.793 33.065C530.303 33.065 530.733 33.14 531.083 33.29C531.443 33.43 531.733 33.63 531.953 33.89C532.173 34.14 532.333 34.44 532.433 34.79C532.533 35.14 532.583 35.52 532.583 35.93V40.82C532.483 40.85 532.338 40.885 532.148 40.925C531.958 40.955 531.738 40.99 531.488 41.03C531.238 41.07 530.958 41.1 530.648 41.12C530.348 41.15 530.038 41.165 529.718 41.165C529.308 41.165 528.928 41.12 528.578 41.03C528.238 40.94 527.938 40.8 527.678 40.61C527.428 40.41 527.228 40.16 527.078 39.86C526.938 39.55 526.868 39.175 526.868 38.735C526.868 38.315 526.948 37.955 527.108 37.655C527.268 37.355 527.493 37.11 527.783 36.92C528.073 36.72 528.418 36.575 528.818 36.485C529.218 36.395 529.653 36.35 530.123 36.35C530.263 36.35 530.408 36.36 530.558 36.38C530.718 36.39 530.868 36.41 531.008 36.44C531.158 36.46 531.283 36.485 531.383 36.515C531.493 36.535 531.568 36.555 531.608 36.575V36.095C531.608 35.825 531.588 35.565 531.548 35.315C531.508 35.055 531.418 34.825 531.278 34.625C531.148 34.415 530.958 34.25 530.708 34.13C530.468 34 530.148 33.935 529.748 33.935C529.178 33.935 528.753 33.975 528.473 34.055C528.193 34.135 527.988 34.2 527.858 34.25L527.723 33.395C527.893 33.315 528.153 33.24 528.503 33.17C528.863 33.1 529.293 33.065 529.793 33.065ZM535.07 41V33.245H536.045V36.83C536.325 36.56 536.635 36.26 536.975 35.93C537.325 35.59 537.665 35.255 537.995 34.925C538.325 34.585 538.63 34.27 538.91 33.98C539.2 33.68 539.43 33.435 539.6 33.245H540.77C540.54 33.505 540.265 33.8 539.945 34.13C539.625 34.45 539.295 34.775 538.955 35.105C538.625 35.435 538.3 35.755 537.98 36.065C537.67 36.375 537.395 36.64 537.155 36.86C537.495 37.08 537.855 37.355 538.235 37.685C538.615 38.005 538.98 38.355 539.33 38.735C539.69 39.105 540.02 39.49 540.32 39.89C540.63 40.28 540.89 40.65 541.1 41H539.945C539.705 40.63 539.42 40.255 539.09 39.875C538.77 39.495 538.43 39.135 538.07 38.795C537.72 38.445 537.365 38.13 537.005 37.85C536.655 37.57 536.335 37.345 536.045 37.175V41H535.07ZM545.103 40.295C545.483 40.295 545.813 40.285 546.093 40.265C546.383 40.235 546.628 40.2 546.828 40.16V37.43C546.718 37.38 546.543 37.33 546.303 37.28C546.063 37.22 545.733 37.19 545.313 37.19C545.073 37.19 544.823 37.21 544.563 37.25C544.303 37.28 544.063 37.355 543.843 37.475C543.623 37.585 543.443 37.74 543.303 37.94C543.163 38.14 543.093 38.405 543.093 38.735C543.093 39.025 543.138 39.27 543.228 39.47C543.328 39.67 543.463 39.83 543.633 39.95C543.813 40.07 544.023 40.16 544.263 40.22C544.513 40.27 544.793 40.295 545.103 40.295ZM545.013 33.065C545.523 33.065 545.953 33.14 546.303 33.29C546.663 33.43 546.953 33.63 547.173 33.89C547.393 34.14 547.553 34.44 547.653 34.79C547.753 35.14 547.803 35.52 547.803 35.93V40.82C547.703 40.85 547.558 40.885 547.368 40.925C547.178 40.955 546.958 40.99 546.708 41.03C546.458 41.07 546.178 41.1 545.868 41.12C545.568 41.15 545.258 41.165 544.938 41.165C544.528 41.165 544.148 41.12 543.798 41.03C543.458 40.94 543.158 40.8 542.898 40.61C542.648 40.41 542.448 40.16 542.298 39.86C542.158 39.55 542.088 39.175 542.088 38.735C542.088 38.315 542.168 37.955 542.328 37.655C542.488 37.355 542.713 37.11 543.003 36.92C543.293 36.72 543.638 36.575 544.038 36.485C544.438 36.395 544.873 36.35 545.343 36.35C545.483 36.35 545.628 36.36 545.778 36.38C545.938 36.39 546.088 36.41 546.228 36.44C546.378 36.46 546.503 36.485 546.603 36.515C546.713 36.535 546.788 36.555 546.828 36.575V36.095C546.828 35.825 546.808 35.565 546.768 35.315C546.728 35.055 546.638 34.825 546.498 34.625C546.368 34.415 546.178 34.25 545.928 34.13C545.688 34 545.368 33.935 544.968 33.935C544.398 33.935 543.973 33.975 543.693 34.055C543.413 34.135 543.208 34.2 543.078 34.25L542.943 33.395C543.113 33.315 543.373 33.24 543.723 33.17C544.083 33.1 544.513 33.065 545.013 33.065ZM552.09 40.295C552.79 40.295 553.34 40.18 553.74 39.95C554.14 39.71 554.34 39.355 554.34 38.885C554.34 38.545 554.265 38.275 554.115 38.075C553.965 37.875 553.775 37.72 553.545 37.61C553.325 37.5 553.085 37.43 552.825 37.4C552.575 37.36 552.345 37.34 552.135 37.34H551.055V36.515H552.06C552.24 36.515 552.445 36.5 552.675 36.47C552.915 36.44 553.135 36.38 553.335 36.29C553.535 36.2 553.705 36.075 553.845 35.915C553.985 35.745 554.055 35.525 554.055 35.255C554.055 34.995 553.995 34.78 553.875 34.61C553.765 34.44 553.615 34.305 553.425 34.205C553.235 34.105 553.015 34.035 552.765 33.995C552.525 33.955 552.28 33.935 552.03 33.935C551.46 33.935 551.01 33.995 550.68 34.115C550.35 34.225 550.125 34.31 550.005 34.37L549.78 33.5C549.92 33.43 550.185 33.345 550.575 33.245C550.965 33.135 551.45 33.08 552.03 33.08C553.02 33.08 553.77 33.26 554.28 33.62C554.79 33.98 555.045 34.515 555.045 35.225C555.045 35.665 554.915 36.025 554.655 36.305C554.395 36.575 554.09 36.765 553.74 36.875C554.23 37.015 554.62 37.25 554.91 37.58C555.2 37.91 555.345 38.345 555.345 38.885C555.345 39.655 555.07 40.23 554.52 40.61C553.97 40.99 553.165 41.18 552.105 41.18C551.395 41.18 550.825 41.12 550.395 41C549.965 40.88 549.69 40.79 549.57 40.73L549.825 39.845C549.855 39.865 549.92 39.9 550.02 39.95C550.13 39.99 550.28 40.04 550.47 40.1C550.66 40.15 550.89 40.195 551.16 40.235C551.43 40.275 551.74 40.295 552.09 40.295ZM557.438 33.245H558.413V36.35C558.593 36.3 558.858 36.25 559.208 36.2C559.558 36.14 559.908 36.11 560.258 36.11C560.648 36.11 561.023 36.155 561.383 36.245C561.753 36.335 562.073 36.48 562.343 36.68C562.623 36.88 562.843 37.14 563.003 37.46C563.173 37.78 563.258 38.17 563.258 38.63C563.258 39.09 563.173 39.48 563.003 39.8C562.843 40.12 562.623 40.385 562.343 40.595C562.063 40.795 561.728 40.94 561.338 41.03C560.958 41.12 560.553 41.165 560.123 41.165C559.863 41.165 559.598 41.155 559.328 41.135C559.068 41.115 558.818 41.09 558.578 41.06C558.348 41.03 558.133 40.995 557.933 40.955C557.733 40.915 557.568 40.87 557.438 40.82V33.245ZM560.123 40.295C560.753 40.295 561.263 40.165 561.653 39.905C562.053 39.645 562.253 39.22 562.253 38.63C562.253 38.35 562.198 38.105 562.088 37.895C561.978 37.685 561.828 37.515 561.638 37.385C561.458 37.245 561.243 37.145 560.993 37.085C560.753 37.015 560.498 36.98 560.228 36.98C559.918 36.98 559.603 36.995 559.283 37.025C558.963 37.055 558.673 37.115 558.413 37.205V40.145C558.543 40.175 558.768 40.21 559.088 40.25C559.408 40.28 559.753 40.295 560.123 40.295ZM565.868 41H564.893V33.245H565.868V41Z" fill="white"/>
<path d="M103.975 9.515C105.445 9.515 106.54 9.795 107.26 10.355C107.98 10.915 108.34 11.71 108.34 12.74C108.34 13.33 108.235 13.835 108.025 14.255C107.815 14.665 107.515 15 107.125 15.26C106.735 15.51 106.255 15.695 105.685 15.815C105.125 15.925 104.49 15.98 103.78 15.98H102.37V20H101.35V9.8C101.71 9.7 102.13 9.63 102.61 9.59C103.1 9.54 103.555 9.515 103.975 9.515ZM104.02 10.4C103.64 10.4 103.315 10.415 103.045 10.445C102.785 10.465 102.56 10.485 102.37 10.505V15.095H103.66C104.21 15.095 104.705 15.065 105.145 15.005C105.595 14.935 105.975 14.815 106.285 14.645C106.605 14.465 106.85 14.22 107.02 13.91C107.19 13.6 107.275 13.205 107.275 12.725C107.275 12.265 107.18 11.885 106.99 11.585C106.81 11.285 106.565 11.05 106.255 10.88C105.955 10.7 105.61 10.575 105.22 10.505C104.83 10.435 104.43 10.4 104.02 10.4ZM109.38 16.115C109.38 15.435 109.475 14.845 109.665 14.345C109.865 13.835 110.12 13.41 110.43 13.07C110.75 12.73 111.11 12.48 111.51 12.32C111.92 12.15 112.34 12.065 112.77 12.065C113.72 12.065 114.475 12.375 115.035 12.995C115.605 13.615 115.89 14.57 115.89 15.86C115.89 15.94 115.885 16.02 115.875 16.1C115.875 16.18 115.87 16.255 115.86 16.325H110.415C110.445 17.275 110.68 18.005 111.12 18.515C111.56 19.025 112.26 19.28 113.22 19.28C113.75 19.28 114.17 19.23 114.48 19.13C114.79 19.03 115.015 18.945 115.155 18.875L115.335 19.715C115.195 19.795 114.93 19.89 114.54 20C114.16 20.11 113.71 20.165 113.19 20.165C112.51 20.165 111.93 20.065 111.45 19.865C110.97 19.665 110.575 19.385 110.265 19.025C109.955 18.665 109.73 18.24 109.59 17.75C109.45 17.25 109.38 16.705 109.38 16.115ZM114.885 15.5C114.865 14.69 114.675 14.06 114.315 13.61C113.955 13.16 113.445 12.935 112.785 12.935C112.435 12.935 112.12 13.005 111.84 13.145C111.57 13.285 111.33 13.475 111.12 13.715C110.92 13.945 110.76 14.215 110.64 14.525C110.53 14.835 110.465 15.16 110.445 15.5H114.885ZM118.062 20V12.245H119.037V15.83C119.317 15.56 119.627 15.26 119.967 14.93C120.317 14.59 120.657 14.255 120.987 13.925C121.317 13.585 121.622 13.27 121.902 12.98C122.192 12.68 122.422 12.435 122.592 12.245H123.762C123.532 12.505 123.257 12.8 122.937 13.13C122.617 13.45 122.287 13.775 121.947 14.105C121.617 14.435 121.292 14.755 120.972 15.065C120.662 15.375 120.387 15.64 120.147 15.86C120.487 16.08 120.847 16.355 121.227 16.685C121.607 17.005 121.972 17.355 122.322 17.735C122.682 18.105 123.012 18.49 123.312 18.89C123.622 19.28 123.882 19.65 124.092 20H122.937C122.697 19.63 122.412 19.255 122.082 18.875C121.762 18.495 121.422 18.135 121.062 17.795C120.712 17.445 120.357 17.13 119.997 16.85C119.647 16.57 119.327 16.345 119.037 16.175V20H118.062ZM132.002 16.13C132.002 16.74 131.912 17.295 131.732 17.795C131.562 18.295 131.317 18.72 130.997 19.07C130.687 19.42 130.317 19.695 129.887 19.895C129.457 20.085 128.982 20.18 128.462 20.18C127.942 20.18 127.467 20.085 127.037 19.895C126.607 19.695 126.232 19.42 125.912 19.07C125.602 18.72 125.357 18.295 125.177 17.795C125.007 17.295 124.922 16.74 124.922 16.13C124.922 15.52 125.007 14.965 125.177 14.465C125.357 13.965 125.602 13.54 125.912 13.19C126.232 12.83 126.607 12.555 127.037 12.365C127.467 12.165 127.942 12.065 128.462 12.065C128.982 12.065 129.457 12.165 129.887 12.365C130.317 12.555 130.687 12.83 130.997 13.19C131.317 13.54 131.562 13.965 131.732 14.465C131.912 14.965 132.002 15.52 132.002 16.13ZM130.967 16.13C130.967 15.16 130.742 14.39 130.292 13.82C129.842 13.24 129.232 12.95 128.462 12.95C127.692 12.95 127.082 13.24 126.632 13.82C126.182 14.39 125.957 15.16 125.957 16.13C125.957 17.1 126.182 17.87 126.632 18.44C127.082 19.01 127.692 19.295 128.462 19.295C129.232 19.295 129.842 19.01 130.292 18.44C130.742 17.87 130.967 17.1 130.967 16.13ZM137.792 18.92C137.732 18.77 137.642 18.565 137.522 18.305C137.402 18.035 137.267 17.74 137.117 17.42C136.977 17.09 136.822 16.745 136.652 16.385C136.482 16.015 136.312 15.66 136.142 15.32C135.982 14.98 135.827 14.66 135.677 14.36C135.527 14.06 135.397 13.815 135.287 13.625C135.157 14.775 135.062 15.87 135.002 16.91C134.942 17.94 134.892 18.97 134.852 20H133.937C133.977 18.71 134.042 17.41 134.132 16.1C134.232 14.79 134.357 13.505 134.507 12.245H135.512C135.642 12.455 135.807 12.755 136.007 13.145C136.217 13.535 136.442 13.98 136.682 14.48C136.932 14.97 137.187 15.505 137.447 16.085C137.717 16.655 137.987 17.235 138.257 17.825C138.527 17.235 138.792 16.655 139.052 16.085C139.322 15.505 139.577 14.97 139.817 14.48C140.067 13.98 140.292 13.535 140.492 13.145C140.692 12.755 140.862 12.455 141.002 12.245H141.992C142.142 13.505 142.262 14.79 142.352 16.1C142.452 17.41 142.522 18.71 142.562 20H141.632C141.592 18.97 141.542 17.94 141.482 16.91C141.422 15.87 141.327 14.775 141.197 13.625C141.087 13.825 140.957 14.075 140.807 14.375C140.657 14.665 140.497 14.98 140.327 15.32C140.167 15.66 140.002 16.015 139.832 16.385C139.662 16.745 139.502 17.09 139.352 17.42C139.212 17.74 139.082 18.035 138.962 18.305C138.842 18.565 138.752 18.77 138.692 18.92H137.792ZM144.492 16.115C144.492 15.435 144.587 14.845 144.777 14.345C144.977 13.835 145.232 13.41 145.542 13.07C145.862 12.73 146.222 12.48 146.622 12.32C147.032 12.15 147.452 12.065 147.882 12.065C148.832 12.065 149.587 12.375 150.147 12.995C150.717 13.615 151.002 14.57 151.002 15.86C151.002 15.94 150.997 16.02 150.987 16.1C150.987 16.18 150.982 16.255 150.972 16.325H145.527C145.557 17.275 145.792 18.005 146.232 18.515C146.672 19.025 147.372 19.28 148.332 19.28C148.862 19.28 149.282 19.23 149.592 19.13C149.902 19.03 150.127 18.945 150.267 18.875L150.447 19.715C150.307 19.795 150.042 19.89 149.652 20C149.272 20.11 148.822 20.165 148.302 20.165C147.622 20.165 147.042 20.065 146.562 19.865C146.082 19.665 145.687 19.385 145.377 19.025C145.067 18.665 144.842 18.24 144.702 17.75C144.562 17.25 144.492 16.705 144.492 16.115ZM149.997 15.5C149.977 14.69 149.787 14.06 149.427 13.61C149.067 13.16 148.557 12.935 147.897 12.935C147.547 12.935 147.232 13.005 146.952 13.145C146.682 13.285 146.442 13.475 146.232 13.715C146.032 13.945 145.872 14.215 145.752 14.525C145.642 14.835 145.577 15.16 145.557 15.5H149.997ZM159.34 20H158.365V16.385H154.15V20H153.175V12.245H154.15V15.56H158.365V12.245H159.34V20ZM167.89 19.175H168.775V22.145H167.83V20H161.8V22.145H160.855V19.175H161.65C161.98 18.655 162.24 18.155 162.43 17.675C162.63 17.195 162.78 16.705 162.88 16.205C162.99 15.705 163.06 15.18 163.09 14.63C163.13 14.07 163.15 13.46 163.15 12.8V12.245H167.89V19.175ZM164.065 13.07C164.065 13.61 164.045 14.14 164.005 14.66C163.975 15.18 163.91 15.695 163.81 16.205C163.71 16.715 163.57 17.22 163.39 17.72C163.21 18.21 162.975 18.695 162.685 19.175H166.915V13.07H164.065ZM172.978 19.295C173.358 19.295 173.688 19.285 173.968 19.265C174.258 19.235 174.503 19.2 174.703 19.16V16.43C174.593 16.38 174.418 16.33 174.178 16.28C173.938 16.22 173.608 16.19 173.188 16.19C172.948 16.19 172.698 16.21 172.438 16.25C172.178 16.28 171.938 16.355 171.718 16.475C171.498 16.585 171.318 16.74 171.178 16.94C171.038 17.14 170.968 17.405 170.968 17.735C170.968 18.025 171.013 18.27 171.103 18.47C171.203 18.67 171.338 18.83 171.508 18.95C171.688 19.07 171.898 19.16 172.138 19.22C172.388 19.27 172.668 19.295 172.978 19.295ZM172.888 12.065C173.398 12.065 173.828 12.14 174.178 12.29C174.538 12.43 174.828 12.63 175.048 12.89C175.268 13.14 175.428 13.44 175.528 13.79C175.628 14.14 175.678 14.52 175.678 14.93V19.82C175.578 19.85 175.433 19.885 175.243 19.925C175.053 19.955 174.833 19.99 174.583 20.03C174.333 20.07 174.053 20.1 173.743 20.12C173.443 20.15 173.133 20.165 172.813 20.165C172.403 20.165 172.023 20.12 171.673 20.03C171.333 19.94 171.033 19.8 170.773 19.61C170.523 19.41 170.323 19.16 170.173 18.86C170.033 18.55 169.963 18.175 169.963 17.735C169.963 17.315 170.043 16.955 170.203 16.655C170.363 16.355 170.588 16.11 170.878 15.92C171.168 15.72 171.513 15.575 171.913 15.485C172.313 15.395 172.748 15.35 173.218 15.35C173.358 15.35 173.503 15.36 173.653 15.38C173.813 15.39 173.963 15.41 174.103 15.44C174.253 15.46 174.378 15.485 174.478 15.515C174.588 15.535 174.663 15.555 174.703 15.575V15.095C174.703 14.825 174.683 14.565 174.643 14.315C174.603 14.055 174.513 13.825 174.373 13.625C174.243 13.415 174.053 13.25 173.803 13.13C173.563 13 173.243 12.935 172.843 12.935C172.273 12.935 171.848 12.975 171.568 13.055C171.288 13.135 171.083 13.2 170.953 13.25L170.818 12.395C170.988 12.315 171.248 12.24 171.598 12.17C171.958 12.1 172.388 12.065 172.888 12.065ZM184.15 12.245V19.175H185.035V22.145H184.09V20H178.165V12.245H179.14V19.175H183.175V12.245H184.15ZM192.073 13.49C191.773 13.85 191.423 14.305 191.023 14.855C190.633 15.405 190.233 15.985 189.823 16.595C189.423 17.205 189.038 17.81 188.668 18.41C188.298 19.01 187.978 19.54 187.708 20H186.793V12.245H187.753V18.455C187.993 18.025 188.288 17.53 188.638 16.97C188.998 16.4 189.378 15.83 189.778 15.26C190.178 14.68 190.578 14.125 190.978 13.595C191.388 13.065 191.768 12.615 192.118 12.245H193.033V20H192.073V13.49ZM200.891 13.49C200.591 13.85 200.241 14.305 199.841 14.855C199.451 15.405 199.051 15.985 198.641 16.595C198.241 17.205 197.856 17.81 197.486 18.41C197.116 19.01 196.796 19.54 196.526 20H195.611V12.245H196.571V18.455C196.811 18.025 197.106 17.53 197.456 16.97C197.816 16.4 198.196 15.83 198.596 15.26C198.996 14.68 199.396 14.125 199.796 13.595C200.206 13.065 200.586 12.615 200.936 12.245H201.851V20H200.891V13.49ZM107.275 40H106.3V33.07H102.265V40H101.29V32.245H107.275V40ZM112.304 39.295C112.684 39.295 113.014 39.285 113.294 39.265C113.584 39.235 113.829 39.2 114.029 39.16V36.43C113.919 36.38 113.744 36.33 113.504 36.28C113.264 36.22 112.934 36.19 112.514 36.19C112.274 36.19 112.024 36.21 111.764 36.25C111.504 36.28 111.264 36.355 111.044 36.475C110.824 36.585 110.644 36.74 110.504 36.94C110.364 37.14 110.294 37.405 110.294 37.735C110.294 38.025 110.339 38.27 110.429 38.47C110.529 38.67 110.664 38.83 110.834 38.95C111.014 39.07 111.224 39.16 111.464 39.22C111.714 39.27 111.994 39.295 112.304 39.295ZM112.214 32.065C112.724 32.065 113.154 32.14 113.504 32.29C113.864 32.43 114.154 32.63 114.374 32.89C114.594 33.14 114.754 33.44 114.854 33.79C114.954 34.14 115.004 34.52 115.004 34.93V39.82C114.904 39.85 114.759 39.885 114.569 39.925C114.379 39.955 114.159 39.99 113.909 40.03C113.659 40.07 113.379 40.1 113.069 40.12C112.769 40.15 112.459 40.165 112.139 40.165C111.729 40.165 111.349 40.12 110.999 40.03C110.659 39.94 110.359 39.8 110.099 39.61C109.849 39.41 109.649 39.16 109.499 38.86C109.359 38.55 109.289 38.175 109.289 37.735C109.289 37.315 109.369 36.955 109.529 36.655C109.689 36.355 109.914 36.11 110.204 35.92C110.494 35.72 110.839 35.575 111.239 35.485C111.639 35.395 112.074 35.35 112.544 35.35C112.684 35.35 112.829 35.36 112.979 35.38C113.139 35.39 113.289 35.41 113.429 35.44C113.579 35.46 113.704 35.485 113.804 35.515C113.914 35.535 113.989 35.555 114.029 35.575V35.095C114.029 34.825 114.009 34.565 113.969 34.315C113.929 34.055 113.839 33.825 113.699 33.625C113.569 33.415 113.379 33.25 113.129 33.13C112.889 33 112.569 32.935 112.169 32.935C111.599 32.935 111.174 32.975 110.894 33.055C110.614 33.135 110.409 33.2 110.279 33.25L110.144 32.395C110.314 32.315 110.574 32.24 110.924 32.17C111.284 32.1 111.714 32.065 112.214 32.065ZM118.466 38.605C118.556 38.675 118.666 38.75 118.796 38.83C118.936 38.91 119.096 38.985 119.276 39.055C119.456 39.125 119.651 39.185 119.861 39.235C120.071 39.275 120.291 39.295 120.521 39.295C121.001 39.295 121.401 39.215 121.721 39.055C122.051 38.885 122.316 38.66 122.516 38.38C122.716 38.09 122.861 37.755 122.951 37.375C123.041 36.985 123.086 36.575 123.086 36.145C123.086 35.125 122.831 34.345 122.321 33.805C121.811 33.255 121.136 32.98 120.296 32.98C119.816 32.98 119.426 33.005 119.126 33.055C118.836 33.095 118.616 33.14 118.466 33.19V38.605ZM118.466 42.775H117.491V32.515C117.781 32.415 118.151 32.32 118.601 32.23C119.051 32.14 119.621 32.095 120.311 32.095C120.881 32.095 121.396 32.19 121.856 32.38C122.326 32.56 122.726 32.825 123.056 33.175C123.396 33.525 123.656 33.95 123.836 34.45C124.026 34.95 124.121 35.515 124.121 36.145C124.121 36.735 124.041 37.28 123.881 37.78C123.731 38.27 123.506 38.695 123.206 39.055C122.906 39.405 122.536 39.68 122.096 39.88C121.666 40.08 121.171 40.18 120.611 40.18C120.101 40.18 119.656 40.11 119.276 39.97C118.906 39.82 118.636 39.68 118.466 39.55V42.775ZM131.231 32.245V33.07H128.681V40H127.706V33.07H125.171V32.245H131.231ZM138.905 40H137.93V36.385H133.715V40H132.74V32.245H133.715V35.56H137.93V32.245H138.905V40ZM141.02 36.115C141.02 35.435 141.115 34.845 141.305 34.345C141.505 33.835 141.76 33.41 142.07 33.07C142.39 32.73 142.75 32.48 143.15 32.32C143.56 32.15 143.98 32.065 144.41 32.065C145.36 32.065 146.115 32.375 146.675 32.995C147.245 33.615 147.53 34.57 147.53 35.86C147.53 35.94 147.525 36.02 147.515 36.1C147.515 36.18 147.51 36.255 147.5 36.325H142.055C142.085 37.275 142.32 38.005 142.76 38.515C143.2 39.025 143.9 39.28 144.86 39.28C145.39 39.28 145.81 39.23 146.12 39.13C146.43 39.03 146.655 38.945 146.795 38.875L146.975 39.715C146.835 39.795 146.57 39.89 146.18 40C145.8 40.11 145.35 40.165 144.83 40.165C144.15 40.165 143.57 40.065 143.09 39.865C142.61 39.665 142.215 39.385 141.905 39.025C141.595 38.665 141.37 38.24 141.23 37.75C141.09 37.25 141.02 36.705 141.02 36.115ZM146.525 35.5C146.505 34.69 146.315 34.06 145.955 33.61C145.595 33.16 145.085 32.935 144.425 32.935C144.075 32.935 143.76 33.005 143.48 33.145C143.21 33.285 142.97 33.475 142.76 33.715C142.56 33.945 142.4 34.215 142.28 34.525C142.17 34.835 142.105 35.16 142.085 35.5H146.525ZM150.678 38.605C150.768 38.675 150.878 38.75 151.008 38.83C151.148 38.91 151.308 38.985 151.488 39.055C151.668 39.125 151.863 39.185 152.073 39.235C152.283 39.275 152.503 39.295 152.733 39.295C153.213 39.295 153.613 39.215 153.933 39.055C154.263 38.885 154.528 38.66 154.728 38.38C154.928 38.09 155.073 37.755 155.163 37.375C155.253 36.985 155.298 36.575 155.298 36.145C155.298 35.125 155.043 34.345 154.533 33.805C154.023 33.255 153.348 32.98 152.508 32.98C152.028 32.98 151.638 33.005 151.338 33.055C151.048 33.095 150.828 33.14 150.678 33.19V38.605ZM150.678 42.775H149.703V32.515C149.993 32.415 150.363 32.32 150.813 32.23C151.263 32.14 151.833 32.095 152.523 32.095C153.093 32.095 153.608 32.19 154.068 32.38C154.538 32.56 154.938 32.825 155.268 33.175C155.608 33.525 155.868 33.95 156.048 34.45C156.238 34.95 156.333 35.515 156.333 36.145C156.333 36.735 156.253 37.28 156.093 37.78C155.943 38.27 155.718 38.695 155.418 39.055C155.118 39.405 154.748 39.68 154.308 39.88C153.878 40.08 153.383 40.18 152.823 40.18C152.313 40.18 151.868 40.11 151.488 39.97C151.118 39.82 150.848 39.68 150.678 39.55V42.775ZM165.063 36.13C165.063 36.74 164.973 37.295 164.793 37.795C164.623 38.295 164.378 38.72 164.058 39.07C163.748 39.42 163.378 39.695 162.948 39.895C162.518 40.085 162.043 40.18 161.523 40.18C161.003 40.18 160.528 40.085 160.098 39.895C159.668 39.695 159.293 39.42 158.973 39.07C158.663 38.72 158.418 38.295 158.238 37.795C158.068 37.295 157.983 36.74 157.983 36.13C157.983 35.52 158.068 34.965 158.238 34.465C158.418 33.965 158.663 33.54 158.973 33.19C159.293 32.83 159.668 32.555 160.098 32.365C160.528 32.165 161.003 32.065 161.523 32.065C162.043 32.065 162.518 32.165 162.948 32.365C163.378 32.555 163.748 32.83 164.058 33.19C164.378 33.54 164.623 33.965 164.793 34.465C164.973 34.965 165.063 35.52 165.063 36.13ZM164.028 36.13C164.028 35.16 163.803 34.39 163.353 33.82C162.903 33.24 162.293 32.95 161.523 32.95C160.753 32.95 160.143 33.24 159.693 33.82C159.243 34.39 159.018 35.16 159.018 36.13C159.018 37.1 159.243 37.87 159.693 38.44C160.143 39.01 160.753 39.295 161.523 39.295C162.293 39.295 162.903 39.01 163.353 38.44C163.803 37.87 164.028 37.1 164.028 36.13ZM169.684 32.08C169.984 32.08 170.319 32.1 170.689 32.14C171.069 32.17 171.424 32.255 171.754 32.395C172.084 32.525 172.359 32.735 172.579 33.025C172.809 33.305 172.924 33.69 172.924 34.18C172.924 34.56 172.814 34.9 172.594 35.2C172.374 35.49 172.074 35.705 171.694 35.845C172.254 35.995 172.659 36.235 172.909 36.565C173.159 36.895 173.284 37.3 173.284 37.78C173.284 38.3 173.179 38.72 172.969 39.04C172.759 39.35 172.479 39.59 172.129 39.76C171.789 39.92 171.399 40.025 170.959 40.075C170.529 40.125 170.089 40.15 169.639 40.15C169.099 40.15 168.624 40.115 168.214 40.045C167.814 39.975 167.469 39.9 167.179 39.82V32.41C167.429 32.33 167.759 32.255 168.169 32.185C168.579 32.115 169.084 32.08 169.684 32.08ZM168.154 35.5H169.924C170.524 35.5 171.009 35.4 171.379 35.2C171.749 35 171.934 34.665 171.934 34.195C171.934 33.895 171.869 33.66 171.739 33.49C171.609 33.32 171.439 33.195 171.229 33.115C171.019 33.025 170.779 32.97 170.509 32.95C170.239 32.92 169.969 32.905 169.699 32.905C169.369 32.905 169.054 32.925 168.754 32.965C168.454 32.995 168.254 33.025 168.154 33.055V35.5ZM168.154 36.31V39.16C168.204 39.18 168.284 39.2 168.394 39.22C168.514 39.23 168.644 39.245 168.784 39.265C168.934 39.275 169.089 39.285 169.249 39.295C169.419 39.305 169.579 39.31 169.729 39.31C170.069 39.31 170.394 39.29 170.704 39.25C171.014 39.21 171.284 39.135 171.514 39.025C171.744 38.905 171.929 38.75 172.069 38.56C172.209 38.36 172.279 38.1 172.279 37.78C172.279 37.5 172.219 37.265 172.099 37.075C171.989 36.885 171.829 36.735 171.619 36.625C171.419 36.515 171.179 36.435 170.899 36.385C170.629 36.335 170.334 36.31 170.014 36.31H168.154Z" fill="white"/>
<path d="M108.925 131.605V142H107.905V132.49H102.37V142H101.35V131.605H108.925ZM112.534 140.605C112.624 140.675 112.734 140.75 112.864 140.83C113.004 140.91 113.164 140.985 113.344 141.055C113.524 141.125 113.719 141.185 113.929 141.235C114.139 141.275 114.359 141.295 114.589 141.295C115.069 141.295 115.469 141.215 115.789 141.055C116.119 140.885 116.384 140.66 116.584 140.38C116.784 140.09 116.929 139.755 117.019 139.375C117.109 138.985 117.154 138.575 117.154 138.145C117.154 137.125 116.899 136.345 116.389 135.805C115.879 135.255 115.204 134.98 114.364 134.98C113.884 134.98 113.494 135.005 113.194 135.055C112.904 135.095 112.684 135.14 112.534 135.19V140.605ZM112.534 144.775H111.559V134.515C111.849 134.415 112.219 134.32 112.669 134.23C113.119 134.14 113.689 134.095 114.379 134.095C114.949 134.095 115.464 134.19 115.924 134.38C116.394 134.56 116.794 134.825 117.124 135.175C117.464 135.525 117.724 135.95 117.904 136.45C118.094 136.95 118.189 137.515 118.189 138.145C118.189 138.735 118.109 139.28 117.949 139.78C117.799 140.27 117.574 140.695 117.274 141.055C116.974 141.405 116.604 141.68 116.164 141.88C115.734 142.08 115.239 142.18 114.679 142.18C114.169 142.18 113.724 142.11 113.344 141.97C112.974 141.82 112.704 141.68 112.534 141.55V144.775ZM126.919 138.13C126.919 138.74 126.829 139.295 126.649 139.795C126.479 140.295 126.234 140.72 125.914 141.07C125.604 141.42 125.234 141.695 124.804 141.895C124.374 142.085 123.899 142.18 123.379 142.18C122.859 142.18 122.384 142.085 121.954 141.895C121.524 141.695 121.149 141.42 120.829 141.07C120.519 140.72 120.274 140.295 120.094 139.795C119.924 139.295 119.839 138.74 119.839 138.13C119.839 137.52 119.924 136.965 120.094 136.465C120.274 135.965 120.519 135.54 120.829 135.19C121.149 134.83 121.524 134.555 121.954 134.365C122.384 134.165 122.859 134.065 123.379 134.065C123.899 134.065 124.374 134.165 124.804 134.365C125.234 134.555 125.604 134.83 125.914 135.19C126.234 135.54 126.479 135.965 126.649 136.465C126.829 136.965 126.919 137.52 126.919 138.13ZM125.884 138.13C125.884 137.16 125.659 136.39 125.209 135.82C124.759 135.24 124.149 134.95 123.379 134.95C122.609 134.95 121.999 135.24 121.549 135.82C121.099 136.39 120.874 137.16 120.874 138.13C120.874 139.1 121.099 139.87 121.549 140.44C121.999 141.01 122.609 141.295 123.379 141.295C124.149 141.295 124.759 141.01 125.209 140.44C125.659 139.87 125.884 139.1 125.884 138.13ZM128.464 134.245H129.439V136.345C129.439 137.065 129.599 137.56 129.919 137.83C130.249 138.1 130.719 138.235 131.329 138.235C131.839 138.235 132.234 138.21 132.514 138.16C132.804 138.11 133.049 138.05 133.249 137.98V134.245H134.224V142H133.249V138.805C133.179 138.825 133.074 138.855 132.934 138.895C132.804 138.925 132.649 138.955 132.469 138.985C132.289 139.015 132.094 139.045 131.884 139.075C131.684 139.095 131.479 139.105 131.269 139.105C130.839 139.105 130.449 139.06 130.099 138.97C129.759 138.88 129.464 138.73 129.214 138.52C128.974 138.31 128.789 138.035 128.659 137.695C128.529 137.345 128.464 136.915 128.464 136.405V134.245ZM142.078 135.49C141.778 135.85 141.428 136.305 141.028 136.855C140.638 137.405 140.238 137.985 139.828 138.595C139.428 139.205 139.043 139.81 138.673 140.41C138.303 141.01 137.983 141.54 137.713 142H136.798V134.245H137.758V140.455C137.998 140.025 138.293 139.53 138.643 138.97C139.003 138.4 139.383 137.83 139.783 137.26C140.183 136.68 140.583 136.125 140.983 135.595C141.393 135.065 141.773 134.615 142.123 134.245H143.038V142H142.078V135.49ZM145.151 138.115C145.151 137.435 145.246 136.845 145.436 136.345C145.636 135.835 145.891 135.41 146.201 135.07C146.521 134.73 146.881 134.48 147.281 134.32C147.691 134.15 148.111 134.065 148.541 134.065C149.491 134.065 150.246 134.375 150.806 134.995C151.376 135.615 151.661 136.57 151.661 137.86C151.661 137.94 151.656 138.02 151.646 138.1C151.646 138.18 151.641 138.255 151.631 138.325H146.186C146.216 139.275 146.451 140.005 146.891 140.515C147.331 141.025 148.031 141.28 148.991 141.28C149.521 141.28 149.941 141.23 150.251 141.13C150.561 141.03 150.786 140.945 150.926 140.875L151.106 141.715C150.966 141.795 150.701 141.89 150.311 142C149.931 142.11 149.481 142.165 148.961 142.165C148.281 142.165 147.701 142.065 147.221 141.865C146.741 141.665 146.346 141.385 146.036 141.025C145.726 140.665 145.501 140.24 145.361 139.75C145.221 139.25 145.151 138.705 145.151 138.115ZM150.656 137.5C150.636 136.69 150.446 136.06 150.086 135.61C149.726 135.16 149.216 134.935 148.556 134.935C148.206 134.935 147.891 135.005 147.611 135.145C147.341 135.285 147.101 135.475 146.891 135.715C146.691 135.945 146.531 136.215 146.411 136.525C146.301 136.835 146.236 137.16 146.216 137.5H150.656ZM103.09 161.295C103.79 161.295 104.34 161.18 104.74 160.95C105.14 160.71 105.34 160.355 105.34 159.885C105.34 159.545 105.265 159.275 105.115 159.075C104.965 158.875 104.775 158.72 104.545 158.61C104.325 158.5 104.085 158.43 103.825 158.4C103.575 158.36 103.345 158.34 103.135 158.34H102.055V157.515H103.06C103.24 157.515 103.445 157.5 103.675 157.47C103.915 157.44 104.135 157.38 104.335 157.29C104.535 157.2 104.705 157.075 104.845 156.915C104.985 156.745 105.055 156.525 105.055 156.255C105.055 155.995 104.995 155.78 104.875 155.61C104.765 155.44 104.615 155.305 104.425 155.205C104.235 155.105 104.015 155.035 103.765 154.995C103.525 154.955 103.28 154.935 103.03 154.935C102.46 154.935 102.01 154.995 101.68 155.115C101.35 155.225 101.125 155.31 101.005 155.37L100.78 154.5C100.92 154.43 101.185 154.345 101.575 154.245C101.965 154.135 102.45 154.08 103.03 154.08C104.02 154.08 104.77 154.26 105.28 154.62C105.79 154.98 106.045 155.515 106.045 156.225C106.045 156.665 105.915 157.025 105.655 157.305C105.395 157.575 105.09 157.765 104.74 157.875C105.23 158.015 105.62 158.25 105.91 158.58C106.2 158.91 106.345 159.345 106.345 159.885C106.345 160.655 106.07 161.23 105.52 161.61C104.97 161.99 104.165 162.18 103.105 162.18C102.395 162.18 101.825 162.12 101.395 162C100.965 161.88 100.69 161.79 100.57 161.73L100.825 160.845C100.855 160.865 100.92 160.9 101.02 160.95C101.13 160.99 101.28 161.04 101.47 161.1C101.66 161.15 101.89 161.195 102.16 161.235C102.43 161.275 102.74 161.295 103.09 161.295ZM110.883 161.295C111.263 161.295 111.593 161.285 111.873 161.265C112.163 161.235 112.408 161.2 112.608 161.16V158.43C112.498 158.38 112.323 158.33 112.083 158.28C111.843 158.22 111.513 158.19 111.093 158.19C110.853 158.19 110.603 158.21 110.343 158.25C110.083 158.28 109.843 158.355 109.623 158.475C109.403 158.585 109.223 158.74 109.083 158.94C108.943 159.14 108.873 159.405 108.873 159.735C108.873 160.025 108.918 160.27 109.008 160.47C109.108 160.67 109.243 160.83 109.413 160.95C109.593 161.07 109.803 161.16 110.043 161.22C110.293 161.27 110.573 161.295 110.883 161.295ZM110.793 154.065C111.303 154.065 111.733 154.14 112.083 154.29C112.443 154.43 112.733 154.63 112.953 154.89C113.173 155.14 113.333 155.44 113.433 155.79C113.533 156.14 113.583 156.52 113.583 156.93V161.82C113.483 161.85 113.338 161.885 113.148 161.925C112.958 161.955 112.738 161.99 112.488 162.03C112.238 162.07 111.958 162.1 111.648 162.12C111.348 162.15 111.038 162.165 110.718 162.165C110.308 162.165 109.928 162.12 109.578 162.03C109.238 161.94 108.938 161.8 108.678 161.61C108.428 161.41 108.228 161.16 108.078 160.86C107.938 160.55 107.868 160.175 107.868 159.735C107.868 159.315 107.948 158.955 108.108 158.655C108.268 158.355 108.493 158.11 108.783 157.92C109.073 157.72 109.418 157.575 109.818 157.485C110.218 157.395 110.653 157.35 111.123 157.35C111.263 157.35 111.408 157.36 111.558 157.38C111.718 157.39 111.868 157.41 112.008 157.44C112.158 157.46 112.283 157.485 112.383 157.515C112.493 157.535 112.568 157.555 112.608 157.575V157.095C112.608 156.825 112.588 156.565 112.548 156.315C112.508 156.055 112.418 155.825 112.278 155.625C112.148 155.415 111.958 155.25 111.708 155.13C111.468 155 111.148 154.935 110.748 154.935C110.178 154.935 109.753 154.975 109.473 155.055C109.193 155.135 108.988 155.2 108.858 155.25L108.723 154.395C108.893 154.315 109.153 154.24 109.503 154.17C109.863 154.1 110.293 154.065 110.793 154.065ZM116.07 162V154.245H117.045V157.83C117.325 157.56 117.635 157.26 117.975 156.93C118.325 156.59 118.665 156.255 118.995 155.925C119.325 155.585 119.63 155.27 119.91 154.98C120.2 154.68 120.43 154.435 120.6 154.245H121.77C121.54 154.505 121.265 154.8 120.945 155.13C120.625 155.45 120.295 155.775 119.955 156.105C119.625 156.435 119.3 156.755 118.98 157.065C118.67 157.375 118.395 157.64 118.155 157.86C118.495 158.08 118.855 158.355 119.235 158.685C119.615 159.005 119.98 159.355 120.33 159.735C120.69 160.105 121.02 160.49 121.32 160.89C121.63 161.28 121.89 161.65 122.1 162H120.945C120.705 161.63 120.42 161.255 120.09 160.875C119.77 160.495 119.43 160.135 119.07 159.795C118.72 159.445 118.365 159.13 118.005 158.85C117.655 158.57 117.335 158.345 117.045 158.175V162H116.07ZM126.103 161.295C126.483 161.295 126.813 161.285 127.093 161.265C127.383 161.235 127.628 161.2 127.828 161.16V158.43C127.718 158.38 127.543 158.33 127.303 158.28C127.063 158.22 126.733 158.19 126.313 158.19C126.073 158.19 125.823 158.21 125.563 158.25C125.303 158.28 125.063 158.355 124.843 158.475C124.623 158.585 124.443 158.74 124.303 158.94C124.163 159.14 124.093 159.405 124.093 159.735C124.093 160.025 124.138 160.27 124.228 160.47C124.328 160.67 124.463 160.83 124.633 160.95C124.813 161.07 125.023 161.16 125.263 161.22C125.513 161.27 125.793 161.295 126.103 161.295ZM126.013 154.065C126.523 154.065 126.953 154.14 127.303 154.29C127.663 154.43 127.953 154.63 128.173 154.89C128.393 155.14 128.553 155.44 128.653 155.79C128.753 156.14 128.803 156.52 128.803 156.93V161.82C128.703 161.85 128.558 161.885 128.368 161.925C128.178 161.955 127.958 161.99 127.708 162.03C127.458 162.07 127.178 162.1 126.868 162.12C126.568 162.15 126.258 162.165 125.938 162.165C125.528 162.165 125.148 162.12 124.798 162.03C124.458 161.94 124.158 161.8 123.898 161.61C123.648 161.41 123.448 161.16 123.298 160.86C123.158 160.55 123.088 160.175 123.088 159.735C123.088 159.315 123.168 158.955 123.328 158.655C123.488 158.355 123.713 158.11 124.003 157.92C124.293 157.72 124.638 157.575 125.038 157.485C125.438 157.395 125.873 157.35 126.343 157.35C126.483 157.35 126.628 157.36 126.778 157.38C126.938 157.39 127.088 157.41 127.228 157.44C127.378 157.46 127.503 157.485 127.603 157.515C127.713 157.535 127.788 157.555 127.828 157.575V157.095C127.828 156.825 127.808 156.565 127.768 156.315C127.728 156.055 127.638 155.825 127.498 155.625C127.368 155.415 127.178 155.25 126.928 155.13C126.688 155 126.368 154.935 125.968 154.935C125.398 154.935 124.973 154.975 124.693 155.055C124.413 155.135 124.208 155.2 124.078 155.25L123.943 154.395C124.113 154.315 124.373 154.24 124.723 154.17C125.083 154.1 125.513 154.065 126.013 154.065ZM133.09 161.295C133.79 161.295 134.34 161.18 134.74 160.95C135.14 160.71 135.34 160.355 135.34 159.885C135.34 159.545 135.265 159.275 135.115 159.075C134.965 158.875 134.775 158.72 134.545 158.61C134.325 158.5 134.085 158.43 133.825 158.4C133.575 158.36 133.345 158.34 133.135 158.34H132.055V157.515H133.06C133.24 157.515 133.445 157.5 133.675 157.47C133.915 157.44 134.135 157.38 134.335 157.29C134.535 157.2 134.705 157.075 134.845 156.915C134.985 156.745 135.055 156.525 135.055 156.255C135.055 155.995 134.995 155.78 134.875 155.61C134.765 155.44 134.615 155.305 134.425 155.205C134.235 155.105 134.015 155.035 133.765 154.995C133.525 154.955 133.28 154.935 133.03 154.935C132.46 154.935 132.01 154.995 131.68 155.115C131.35 155.225 131.125 155.31 131.005 155.37L130.78 154.5C130.92 154.43 131.185 154.345 131.575 154.245C131.965 154.135 132.45 154.08 133.03 154.08C134.02 154.08 134.77 154.26 135.28 154.62C135.79 154.98 136.045 155.515 136.045 156.225C136.045 156.665 135.915 157.025 135.655 157.305C135.395 157.575 135.09 157.765 134.74 157.875C135.23 158.015 135.62 158.25 135.91 158.58C136.2 158.91 136.345 159.345 136.345 159.885C136.345 160.655 136.07 161.23 135.52 161.61C134.97 161.99 134.165 162.18 133.105 162.18C132.395 162.18 131.825 162.12 131.395 162C130.965 161.88 130.69 161.79 130.57 161.73L130.825 160.845C130.855 160.865 130.92 160.9 131.02 160.95C131.13 160.99 131.28 161.04 131.47 161.1C131.66 161.15 131.89 161.195 132.16 161.235C132.43 161.275 132.74 161.295 133.09 161.295ZM138.438 154.245H139.413V157.35C139.593 157.3 139.858 157.25 140.208 157.2C140.558 157.14 140.908 157.11 141.258 157.11C141.648 157.11 142.023 157.155 142.383 157.245C142.753 157.335 143.073 157.48 143.343 157.68C143.623 157.88 143.843 158.14 144.003 158.46C144.173 158.78 144.258 159.17 144.258 159.63C144.258 160.09 144.173 160.48 144.003 160.8C143.843 161.12 143.623 161.385 143.343 161.595C143.063 161.795 142.728 161.94 142.338 162.03C141.958 162.12 141.553 162.165 141.123 162.165C140.863 162.165 140.598 162.155 140.328 162.135C140.068 162.115 139.818 162.09 139.578 162.06C139.348 162.03 139.133 161.995 138.933 161.955C138.733 161.915 138.568 161.87 138.438 161.82V154.245ZM141.123 161.295C141.753 161.295 142.263 161.165 142.653 160.905C143.053 160.645 143.253 160.22 143.253 159.63C143.253 159.35 143.198 159.105 143.088 158.895C142.978 158.685 142.828 158.515 142.638 158.385C142.458 158.245 142.243 158.145 141.993 158.085C141.753 158.015 141.498 157.98 141.228 157.98C140.918 157.98 140.603 157.995 140.283 158.025C139.963 158.055 139.673 158.115 139.413 158.205V161.145C139.543 161.175 139.768 161.21 140.088 161.25C140.408 161.28 140.753 161.295 141.123 161.295ZM146.868 162H145.893V154.245H146.868V162Z" fill="white"/>
</svg>
