<svg width="20" height="21" viewBox="0 0 20 21" fill="none" xmlns="http://www.w3.org/2000/svg">
<path d="M19.4692 7.61438L13.3209 6.67381L10.5651 0.795061C10.3593 0.356074 9.6401 0.356074 9.43427 0.795061L6.67927 6.67381L0.530956 7.61438C0.0259576 7.692 -0.175709 8.30708 0.178457 8.67012L4.64511 13.2553L3.58928 19.7374C3.50512 20.2524 4.05428 20.6388 4.50845 20.3859L10.0001 17.3464L15.4918 20.3867C15.9417 20.6371 16.4959 20.2582 16.4109 19.7383L15.3551 13.2561L19.8217 8.67095C20.1759 8.30708 19.9734 7.692 19.4692 7.61438Z" fill="#FFC107"/>
</svg>
