<svg width="60" height="60" viewBox="0 0 60 60" fill="none" xmlns="http://www.w3.org/2000/svg">
<path d="M59.2501 41.3478H58.8154V32.6628C58.8154 28.0659 57.9985 23.552 56.3877 19.2473L54.3148 13.7078C53.7293 12.1442 52.2144 11.0936 50.5446 11.0936H43.3383V9.79518C43.3383 4.3941 38.9442 0 33.5431 0C33.129 0 32.7932 0.335783 32.7932 0.749927V6.1056C32.7932 6.51975 33.129 6.85553 33.5431 6.85553C35.1642 6.85553 36.4828 8.17413 36.4828 9.79482V11.8436V23.3685C35.1157 20.4823 32.6896 17.7233 29.2515 15.2929C24.6365 12.031 19.8212 10.6202 15.6496 11.2852L11.2504 8.17559C10.9117 7.93575 10.4444 8.01667 10.2053 8.35502L0.137691 22.5974C-0.101421 22.9354 -0.0212288 23.4033 0.317117 23.6425L4.09019 26.3097C4.09728 26.3147 4.10561 26.3161 4.11284 26.3209L2.9089 41.3478H0.755795C0.341651 41.3478 0.00586817 41.6835 0.00586817 42.0977V50.374C0.00586817 50.7881 0.341651 51.1239 0.755795 51.1239H3.35056C3.23146 51.6445 3.16266 52.184 3.16266 52.7402C3.16266 56.7399 6.41686 59.9941 10.417 59.9941C13.2705 59.9941 15.7373 58.3337 16.921 55.932C18.1046 58.3337 20.5715 59.9941 23.4253 59.9941C27.4251 59.9941 30.6793 56.7399 30.6793 52.7402C30.6793 52.184 30.6105 51.6445 30.4914 51.1239H42.0263C41.9072 51.6445 41.8384 52.184 41.8384 52.7402C41.8384 56.7399 45.0926 59.9941 49.0924 59.9941C53.0925 59.9941 56.3467 56.7399 56.3467 52.7402C56.3467 52.184 56.2779 51.6445 56.1588 51.1239H59.2501C59.6642 51.1239 60 50.7881 60 50.374V42.0977C60 41.6835 59.6642 41.3478 59.2501 41.3478ZM56.7468 26.2207H42.6005V17.672H54.1968L54.983 19.7731C55.7699 21.8756 56.3572 24.0303 56.7468 26.2207ZM52.9101 14.2336L53.6355 16.1721H41.8505C41.4364 16.1721 41.1006 16.5079 41.1006 16.9221V26.9706C41.1006 27.3848 41.4364 27.7206 41.8505 27.7206H56.9835C57.2043 29.3523 57.3156 31.0019 57.3156 32.6628V41.3478H37.9826V12.5935H50.5446C51.5923 12.5935 52.5428 13.2526 52.9101 14.2336ZM34.293 5.41903V1.53354C38.5172 1.91363 41.8384 5.47395 41.8384 9.79518V11.0936H37.9826V9.79482C37.9826 7.60253 36.3854 5.77641 34.293 5.41903ZM36.4828 41.3478H29.7154C31.8118 40.3944 33.657 38.8302 35.1708 36.6885C35.6865 35.959 36.1206 35.2171 36.4828 34.4673V41.3478ZM11.7813 41.3478L11.4353 37.0286C11.9454 37.4464 12.4732 37.8551 13.0263 38.2459C14.9485 39.6048 16.8937 40.6428 18.8129 41.3478H11.7813ZM28.3859 16.5174C36.4051 22.1866 38.4839 29.4035 33.9463 35.8229C31.5984 39.1441 28.524 40.8655 24.8087 40.9387C21.3887 41.02 17.6127 39.6516 13.892 37.0214C12.9535 36.3579 12.075 35.6497 11.2811 34.9163C11.2764 34.9119 11.2701 34.9108 11.2653 34.9066L10.3368 23.3173C10.3056 22.9277 9.98048 22.6274 9.5894 22.6274H8.88589L15.8583 12.7641C19.6482 12.1497 24.0837 13.4767 28.3859 16.5174ZM1.795 22.8508L10.997 9.8329L14.3955 12.2351L7.04948 22.6274H5.10083C4.70975 22.6274 4.38459 22.9277 4.35347 23.3173L4.25171 24.5875L1.795 22.8508ZM5.7929 24.1273H8.89733L10.277 41.3478H4.41324L5.7929 24.1273ZM10.417 58.4943C7.24405 58.4943 4.66252 55.9131 4.66252 52.7402C4.66252 49.5673 7.24405 46.9858 10.417 46.9858C13.5899 46.9858 16.171 49.5673 16.171 52.7402C16.171 55.9131 13.5899 58.4943 10.417 58.4943ZM23.4253 58.4943C20.2524 58.4943 17.6709 55.9131 17.6709 52.7402C17.6709 49.5673 20.2524 46.9858 23.4253 46.9858C26.5982 46.9858 29.1794 49.5673 29.1794 52.7402C29.1794 55.9131 26.5982 58.4943 23.4253 58.4943ZM49.0924 58.4943C45.9195 58.4943 43.3383 55.9131 43.3383 52.7402C43.3383 49.5673 45.9195 46.9858 49.0924 46.9858C52.2653 46.9858 54.8468 49.5673 54.8468 52.7402C54.8468 55.9131 52.2653 58.4943 49.0924 58.4943ZM58.5001 49.6241H55.6333C54.4647 47.1814 51.9761 45.4859 49.0924 45.4859C46.2089 45.4859 43.7204 47.1814 42.5518 49.6241H29.9659C28.7973 47.1814 26.3088 45.4859 23.4253 45.4859C20.5715 45.4859 18.1046 47.1464 16.921 49.5483C15.7373 47.1464 13.2705 45.4859 10.417 45.4859C7.53328 45.4859 5.04467 47.1814 3.87602 49.6241H1.50572V42.8476H58.5001V49.6241Z" fill="#242B30"/>
</svg>
