<svg width="60" height="68" viewBox="0 0 60 68" fill="none" xmlns="http://www.w3.org/2000/svg">
<g filter="url(#filter0_d)">
<mask id="path-1-inside-1" fill="white">
<path d="M58.5366 52.6831C58.1707 50.7624 56.7073 49.299 54.7866 48.8416L49.0244 47.4697L47.2866 45.0916C48.5671 43.9026 49.5732 42.3477 49.6646 40.5185C50.2134 40.0612 51.311 38.9636 51.311 37.7746C51.311 36.7685 50.7622 36.4026 50.2134 36.2197L50.3963 34.8477C50.4878 33.0185 49.7561 32.0124 49.0244 31.5551C49.5732 30.7319 49.3902 30.0916 49.3902 30.0002L49.1159 29.177L48.3841 29.7258C47.4695 30.366 47.0122 30.0916 46.9207 30.0916C45.5488 29.4514 42.8049 29.3599 42.622 29.3599C39.8781 29.3599 38.872 30.6404 38.5061 31.4636C36.0366 31.8294 36.128 34.4819 36.128 35.5794C36.128 35.7624 36.128 35.9453 36.128 36.0368C36.128 36.2197 36.128 36.3112 36.128 36.4941C35.6707 36.677 35.2134 37.0429 35.2134 37.9575C35.2134 39.1465 36.311 40.2441 36.8598 40.7014C36.9512 42.5307 37.9573 44.0855 39.2378 45.1831L37.5 47.6526L32.9268 48.7502C32.2866 48.2929 31.6463 47.927 30.8232 47.7441L24.3293 46.1892L22.3171 43.4453C23.7805 42.1648 24.878 40.427 24.9695 38.3233C25.5183 37.866 26.7988 36.5855 26.7988 35.3051C26.7988 34.2075 26.25 33.7502 25.6098 33.6587L25.7927 32.0124C25.8841 30.0002 25.061 28.9026 24.2378 28.3538C24.878 27.4392 24.6951 26.799 24.6037 26.616L24.3293 25.7929L23.5976 26.3416C22.5915 27.0733 21.9512 26.7075 21.9512 26.7075C20.4878 26.0673 17.378 25.8843 17.1951 25.8843C14.0854 25.8843 12.9878 27.3477 12.622 28.1709C9.87805 28.6282 9.96951 31.4636 10.061 32.7441C10.061 32.927 10.061 33.1099 10.061 33.2929C10.061 33.4758 10.061 33.6587 10.061 33.8416C9.5122 34.0246 9.05488 34.4819 8.96342 35.3965C8.96342 36.7685 10.1524 37.9575 10.7927 38.5063C10.9756 40.5185 11.9817 42.2563 13.4451 43.5368L11.4329 46.3721L5.57927 47.7441C3.47561 48.2014 1.92073 49.9392 1.46341 52.0429L0 60.0002H60L58.5366 52.6831ZM38.1402 40.3355V39.9697L37.8659 39.7868C37.4085 39.4209 36.4939 38.5063 36.5854 37.9575C36.5854 37.866 36.5854 37.7746 36.5854 37.7746C36.8598 37.7746 37.1341 37.6831 37.3171 37.4087C37.5 37.2258 37.5915 36.9514 37.5 36.677C37.5 36.4026 37.4085 36.2197 37.5 36.0368C37.5 35.8538 37.5 35.6709 37.5 35.488C37.4085 33.6587 37.5915 32.7441 39.0549 32.7441H39.6037L39.6951 32.1953C39.6951 32.1038 40.061 30.7319 42.622 30.7319C43.3537 30.7319 45.4573 30.9148 46.372 31.3721C46.4634 31.3721 46.9207 31.5551 47.4695 31.5551L46.4634 32.5612L47.9268 32.6526C48.0183 32.6526 49.2073 32.7441 49.0244 34.8477L48.8415 36.7685C48.8415 37.0429 48.9329 37.2258 49.0244 37.4087C49.2073 37.5916 49.3902 37.6831 49.6646 37.6831L49.8476 37.5916C49.8476 37.5916 49.8476 37.6831 49.8476 37.866C49.8476 38.5063 48.9329 39.4209 48.5671 39.6953L48.2927 39.8782V40.2441C48.2927 43.1709 45.1829 45.549 43.2622 45.549C40.9756 45.4575 38.2317 43.0794 38.1402 40.3355ZM43.2622 46.8295C44.2683 46.8295 45.2744 46.4636 46.2805 45.9148L48.0183 48.2929L45.5488 57.6221L45 52.0429L46.2805 49.6648C46.372 49.4819 46.372 49.2075 46.2805 49.0246C46.189 48.8416 45.9146 48.6587 45.7317 48.6587H41.0671C40.7927 48.6587 40.6098 48.7502 40.5183 49.0246C40.4268 49.2075 40.4268 49.4819 40.5183 49.6648L41.7988 52.0429L41.25 57.6221L38.5976 48.3843L40.3354 46.0063C41.25 46.5551 42.2561 46.8295 43.2622 46.8295ZM42.0732 50.0307H44.4512L43.811 51.2197H42.7134L42.0732 50.0307ZM11.9817 38.049V37.6831L11.7073 37.5002C11.1585 37.1343 10.2439 36.1282 10.2439 35.3965C10.2439 35.2136 10.2439 35.1221 10.3354 35.1221C10.6098 35.1221 10.9756 35.0307 11.1585 34.7563C11.3415 34.5734 11.4329 34.299 11.3415 34.0246C11.3415 33.7502 11.25 33.4758 11.25 33.2929C11.25 33.1099 11.25 32.927 11.25 32.6526C11.1585 30.6404 11.4329 29.5429 12.9878 29.4514H13.5366L13.628 28.9026C13.628 28.8112 13.9939 27.1648 17.0122 27.1648C17.8354 27.1648 20.2134 27.4392 21.2195 27.8965C21.311 27.8965 21.6768 28.0794 22.2256 28.0794C22.3171 28.0794 22.5 28.0794 22.5915 28.0794L21.4939 29.177L22.8659 29.3599C23.0488 29.3599 24.3293 29.6343 24.2378 31.9209L23.9634 34.116C23.9634 34.3904 24.0549 34.5734 24.1463 34.7563C24.3293 34.9392 24.5122 35.0307 24.7866 35.0307H25.061C25.061 35.0307 25.1524 35.1221 25.1524 35.3965C25.1524 36.1282 24.2378 37.1343 23.5976 37.5916L23.3232 37.7746V38.1404C23.3232 41.4331 19.8476 44.0855 17.561 44.0855C15.2744 43.9026 12.0732 41.2502 11.9817 38.049ZM17.7439 45.2746C18.75 45.2746 19.939 44.9087 21.0366 44.177L23.0488 46.9209L20.122 57.8051L19.4817 51.0368L20.9451 48.3843C21.0366 48.2014 21.0366 47.927 20.9451 47.7441C20.8537 47.5612 20.5793 47.3782 20.3963 47.3782H15.1829C14.9085 47.3782 14.7256 47.4697 14.6341 47.7441C14.5427 47.927 14.5427 48.2014 14.6341 48.3843L16.0976 51.0368L15.4573 57.8051L12.5305 47.0124L14.5427 44.177C15.5488 44.9087 16.7378 45.2746 17.7439 45.2746ZM16.2805 48.8416H19.2073L18.4756 50.3051H17.1037L16.2805 48.8416ZM1.55488 58.6282L2.7439 52.2258C3.01829 50.6709 4.20732 49.3904 5.7622 49.0246L11.25 47.7441L14.1768 58.5368H1.55488V58.6282ZM16.6463 58.6282L17.2866 51.677H18.2012L18.8415 58.6282H16.6463ZM21.4024 58.6282L24.3293 47.6526L30.3659 49.116C31.9207 49.4819 33.1098 50.7624 33.3841 52.3173L34.5732 58.7197H21.4024V58.6282ZM36.0366 58.6282L34.7561 51.9514C34.5732 51.2197 34.2988 50.488 33.8415 49.8477L37.2256 49.0246L39.7866 58.5368H36.0366V58.6282ZM42.3476 58.6282L42.8963 52.5916H43.6281L44.1768 58.6282H42.3476ZM46.5549 58.6282L49.1159 48.9331L54.5122 50.2136C55.8842 50.488 56.8902 51.5855 57.1646 52.9575L58.2622 58.5368H46.5549V58.6282Z"/>
<path d="M17.4699 21.2195L23.415 15.8232H24.3296V20.2134H40.6101L45.7321 24.7866V20.2134H48.7504V3.75H41.0674V0H13.6284V15.8232H17.2869L17.4699 21.2195ZM47.5613 5.12195V18.8415H44.543V21.7683L41.3418 18.8415H25.793V15.8232H41.2504V5.12195H47.5613ZM15.1833 1.46341H39.8784V14.4512H22.9577L18.8418 18.1098V14.4512H15.1833V1.46341Z"/>
<path d="M35.8537 5.03049H19.2073V6.40244H35.8537V5.03049Z"/>
<path d="M33.0179 9.42055H22.0423V10.7925H33.0179V9.42055Z"/>
</mask>
<path d="M58.5366 52.6831C58.1707 50.7624 56.7073 49.299 54.7866 48.8416L49.0244 47.4697L47.2866 45.0916C48.5671 43.9026 49.5732 42.3477 49.6646 40.5185C50.2134 40.0612 51.311 38.9636 51.311 37.7746C51.311 36.7685 50.7622 36.4026 50.2134 36.2197L50.3963 34.8477C50.4878 33.0185 49.7561 32.0124 49.0244 31.5551C49.5732 30.7319 49.3902 30.0916 49.3902 30.0002L49.1159 29.177L48.3841 29.7258C47.4695 30.366 47.0122 30.0916 46.9207 30.0916C45.5488 29.4514 42.8049 29.3599 42.622 29.3599C39.8781 29.3599 38.872 30.6404 38.5061 31.4636C36.0366 31.8294 36.128 34.4819 36.128 35.5794C36.128 35.7624 36.128 35.9453 36.128 36.0368C36.128 36.2197 36.128 36.3112 36.128 36.4941C35.6707 36.677 35.2134 37.0429 35.2134 37.9575C35.2134 39.1465 36.311 40.2441 36.8598 40.7014C36.9512 42.5307 37.9573 44.0855 39.2378 45.1831L37.5 47.6526L32.9268 48.7502C32.2866 48.2929 31.6463 47.927 30.8232 47.7441L24.3293 46.1892L22.3171 43.4453C23.7805 42.1648 24.878 40.427 24.9695 38.3233C25.5183 37.866 26.7988 36.5855 26.7988 35.3051C26.7988 34.2075 26.25 33.7502 25.6098 33.6587L25.7927 32.0124C25.8841 30.0002 25.061 28.9026 24.2378 28.3538C24.878 27.4392 24.6951 26.799 24.6037 26.616L24.3293 25.7929L23.5976 26.3416C22.5915 27.0733 21.9512 26.7075 21.9512 26.7075C20.4878 26.0673 17.378 25.8843 17.1951 25.8843C14.0854 25.8843 12.9878 27.3477 12.622 28.1709C9.87805 28.6282 9.96951 31.4636 10.061 32.7441C10.061 32.927 10.061 33.1099 10.061 33.2929C10.061 33.4758 10.061 33.6587 10.061 33.8416C9.5122 34.0246 9.05488 34.4819 8.96342 35.3965C8.96342 36.7685 10.1524 37.9575 10.7927 38.5063C10.9756 40.5185 11.9817 42.2563 13.4451 43.5368L11.4329 46.3721L5.57927 47.7441C3.47561 48.2014 1.92073 49.9392 1.46341 52.0429L0 60.0002H60L58.5366 52.6831ZM38.1402 40.3355V39.9697L37.8659 39.7868C37.4085 39.4209 36.4939 38.5063 36.5854 37.9575C36.5854 37.866 36.5854 37.7746 36.5854 37.7746C36.8598 37.7746 37.1341 37.6831 37.3171 37.4087C37.5 37.2258 37.5915 36.9514 37.5 36.677C37.5 36.4026 37.4085 36.2197 37.5 36.0368C37.5 35.8538 37.5 35.6709 37.5 35.488C37.4085 33.6587 37.5915 32.7441 39.0549 32.7441H39.6037L39.6951 32.1953C39.6951 32.1038 40.061 30.7319 42.622 30.7319C43.3537 30.7319 45.4573 30.9148 46.372 31.3721C46.4634 31.3721 46.9207 31.5551 47.4695 31.5551L46.4634 32.5612L47.9268 32.6526C48.0183 32.6526 49.2073 32.7441 49.0244 34.8477L48.8415 36.7685C48.8415 37.0429 48.9329 37.2258 49.0244 37.4087C49.2073 37.5916 49.3902 37.6831 49.6646 37.6831L49.8476 37.5916C49.8476 37.5916 49.8476 37.6831 49.8476 37.866C49.8476 38.5063 48.9329 39.4209 48.5671 39.6953L48.2927 39.8782V40.2441C48.2927 43.1709 45.1829 45.549 43.2622 45.549C40.9756 45.4575 38.2317 43.0794 38.1402 40.3355ZM43.2622 46.8295C44.2683 46.8295 45.2744 46.4636 46.2805 45.9148L48.0183 48.2929L45.5488 57.6221L45 52.0429L46.2805 49.6648C46.372 49.4819 46.372 49.2075 46.2805 49.0246C46.189 48.8416 45.9146 48.6587 45.7317 48.6587H41.0671C40.7927 48.6587 40.6098 48.7502 40.5183 49.0246C40.4268 49.2075 40.4268 49.4819 40.5183 49.6648L41.7988 52.0429L41.25 57.6221L38.5976 48.3843L40.3354 46.0063C41.25 46.5551 42.2561 46.8295 43.2622 46.8295ZM42.0732 50.0307H44.4512L43.811 51.2197H42.7134L42.0732 50.0307ZM11.9817 38.049V37.6831L11.7073 37.5002C11.1585 37.1343 10.2439 36.1282 10.2439 35.3965C10.2439 35.2136 10.2439 35.1221 10.3354 35.1221C10.6098 35.1221 10.9756 35.0307 11.1585 34.7563C11.3415 34.5734 11.4329 34.299 11.3415 34.0246C11.3415 33.7502 11.25 33.4758 11.25 33.2929C11.25 33.1099 11.25 32.927 11.25 32.6526C11.1585 30.6404 11.4329 29.5429 12.9878 29.4514H13.5366L13.628 28.9026C13.628 28.8112 13.9939 27.1648 17.0122 27.1648C17.8354 27.1648 20.2134 27.4392 21.2195 27.8965C21.311 27.8965 21.6768 28.0794 22.2256 28.0794C22.3171 28.0794 22.5 28.0794 22.5915 28.0794L21.4939 29.177L22.8659 29.3599C23.0488 29.3599 24.3293 29.6343 24.2378 31.9209L23.9634 34.116C23.9634 34.3904 24.0549 34.5734 24.1463 34.7563C24.3293 34.9392 24.5122 35.0307 24.7866 35.0307H25.061C25.061 35.0307 25.1524 35.1221 25.1524 35.3965C25.1524 36.1282 24.2378 37.1343 23.5976 37.5916L23.3232 37.7746V38.1404C23.3232 41.4331 19.8476 44.0855 17.561 44.0855C15.2744 43.9026 12.0732 41.2502 11.9817 38.049ZM17.7439 45.2746C18.75 45.2746 19.939 44.9087 21.0366 44.177L23.0488 46.9209L20.122 57.8051L19.4817 51.0368L20.9451 48.3843C21.0366 48.2014 21.0366 47.927 20.9451 47.7441C20.8537 47.5612 20.5793 47.3782 20.3963 47.3782H15.1829C14.9085 47.3782 14.7256 47.4697 14.6341 47.7441C14.5427 47.927 14.5427 48.2014 14.6341 48.3843L16.0976 51.0368L15.4573 57.8051L12.5305 47.0124L14.5427 44.177C15.5488 44.9087 16.7378 45.2746 17.7439 45.2746ZM16.2805 48.8416H19.2073L18.4756 50.3051H17.1037L16.2805 48.8416ZM1.55488 58.6282L2.7439 52.2258C3.01829 50.6709 4.20732 49.3904 5.7622 49.0246L11.25 47.7441L14.1768 58.5368H1.55488V58.6282ZM16.6463 58.6282L17.2866 51.677H18.2012L18.8415 58.6282H16.6463ZM21.4024 58.6282L24.3293 47.6526L30.3659 49.116C31.9207 49.4819 33.1098 50.7624 33.3841 52.3173L34.5732 58.7197H21.4024V58.6282ZM36.0366 58.6282L34.7561 51.9514C34.5732 51.2197 34.2988 50.488 33.8415 49.8477L37.2256 49.0246L39.7866 58.5368H36.0366V58.6282ZM42.3476 58.6282L42.8963 52.5916H43.6281L44.1768 58.6282H42.3476ZM46.5549 58.6282L49.1159 48.9331L54.5122 50.2136C55.8842 50.488 56.8902 51.5855 57.1646 52.9575L58.2622 58.5368H46.5549V58.6282Z" fill="black"/>
<path d="M17.4699 21.2195L23.415 15.8232H24.3296V20.2134H40.6101L45.7321 24.7866V20.2134H48.7504V3.75H41.0674V0H13.6284V15.8232H17.2869L17.4699 21.2195ZM47.5613 5.12195V18.8415H44.543V21.7683L41.3418 18.8415H25.793V15.8232H41.2504V5.12195H47.5613ZM15.1833 1.46341H39.8784V14.4512H22.9577L18.8418 18.1098V14.4512H15.1833V1.46341Z" fill="black"/>
<path d="M35.8537 5.03049H19.2073V6.40244H35.8537V5.03049Z" fill="black"/>
<path d="M33.0179 9.42055H22.0423V10.7925H33.0179V9.42055Z" fill="black"/>
<path d="M58.5366 52.6831C58.1707 50.7624 56.7073 49.299 54.7866 48.8416L49.0244 47.4697L47.2866 45.0916C48.5671 43.9026 49.5732 42.3477 49.6646 40.5185C50.2134 40.0612 51.311 38.9636 51.311 37.7746C51.311 36.7685 50.7622 36.4026 50.2134 36.2197L50.3963 34.8477C50.4878 33.0185 49.7561 32.0124 49.0244 31.5551C49.5732 30.7319 49.3902 30.0916 49.3902 30.0002L49.1159 29.177L48.3841 29.7258C47.4695 30.366 47.0122 30.0916 46.9207 30.0916C45.5488 29.4514 42.8049 29.3599 42.622 29.3599C39.8781 29.3599 38.872 30.6404 38.5061 31.4636C36.0366 31.8294 36.128 34.4819 36.128 35.5794C36.128 35.7624 36.128 35.9453 36.128 36.0368C36.128 36.2197 36.128 36.3112 36.128 36.4941C35.6707 36.677 35.2134 37.0429 35.2134 37.9575C35.2134 39.1465 36.311 40.2441 36.8598 40.7014C36.9512 42.5307 37.9573 44.0855 39.2378 45.1831L37.5 47.6526L32.9268 48.7502C32.2866 48.2929 31.6463 47.927 30.8232 47.7441L24.3293 46.1892L22.3171 43.4453C23.7805 42.1648 24.878 40.427 24.9695 38.3233C25.5183 37.866 26.7988 36.5855 26.7988 35.3051C26.7988 34.2075 26.25 33.7502 25.6098 33.6587L25.7927 32.0124C25.8841 30.0002 25.061 28.9026 24.2378 28.3538C24.878 27.4392 24.6951 26.799 24.6037 26.616L24.3293 25.7929L23.5976 26.3416C22.5915 27.0733 21.9512 26.7075 21.9512 26.7075C20.4878 26.0673 17.378 25.8843 17.1951 25.8843C14.0854 25.8843 12.9878 27.3477 12.622 28.1709C9.87805 28.6282 9.96951 31.4636 10.061 32.7441C10.061 32.927 10.061 33.1099 10.061 33.2929C10.061 33.4758 10.061 33.6587 10.061 33.8416C9.5122 34.0246 9.05488 34.4819 8.96342 35.3965C8.96342 36.7685 10.1524 37.9575 10.7927 38.5063C10.9756 40.5185 11.9817 42.2563 13.4451 43.5368L11.4329 46.3721L5.57927 47.7441C3.47561 48.2014 1.92073 49.9392 1.46341 52.0429L0 60.0002H60L58.5366 52.6831ZM38.1402 40.3355V39.9697L37.8659 39.7868C37.4085 39.4209 36.4939 38.5063 36.5854 37.9575C36.5854 37.866 36.5854 37.7746 36.5854 37.7746C36.8598 37.7746 37.1341 37.6831 37.3171 37.4087C37.5 37.2258 37.5915 36.9514 37.5 36.677C37.5 36.4026 37.4085 36.2197 37.5 36.0368C37.5 35.8538 37.5 35.6709 37.5 35.488C37.4085 33.6587 37.5915 32.7441 39.0549 32.7441H39.6037L39.6951 32.1953C39.6951 32.1038 40.061 30.7319 42.622 30.7319C43.3537 30.7319 45.4573 30.9148 46.372 31.3721C46.4634 31.3721 46.9207 31.5551 47.4695 31.5551L46.4634 32.5612L47.9268 32.6526C48.0183 32.6526 49.2073 32.7441 49.0244 34.8477L48.8415 36.7685C48.8415 37.0429 48.9329 37.2258 49.0244 37.4087C49.2073 37.5916 49.3902 37.6831 49.6646 37.6831L49.8476 37.5916C49.8476 37.5916 49.8476 37.6831 49.8476 37.866C49.8476 38.5063 48.9329 39.4209 48.5671 39.6953L48.2927 39.8782V40.2441C48.2927 43.1709 45.1829 45.549 43.2622 45.549C40.9756 45.4575 38.2317 43.0794 38.1402 40.3355ZM43.2622 46.8295C44.2683 46.8295 45.2744 46.4636 46.2805 45.9148L48.0183 48.2929L45.5488 57.6221L45 52.0429L46.2805 49.6648C46.372 49.4819 46.372 49.2075 46.2805 49.0246C46.189 48.8416 45.9146 48.6587 45.7317 48.6587H41.0671C40.7927 48.6587 40.6098 48.7502 40.5183 49.0246C40.4268 49.2075 40.4268 49.4819 40.5183 49.6648L41.7988 52.0429L41.25 57.6221L38.5976 48.3843L40.3354 46.0063C41.25 46.5551 42.2561 46.8295 43.2622 46.8295ZM42.0732 50.0307H44.4512L43.811 51.2197H42.7134L42.0732 50.0307ZM11.9817 38.049V37.6831L11.7073 37.5002C11.1585 37.1343 10.2439 36.1282 10.2439 35.3965C10.2439 35.2136 10.2439 35.1221 10.3354 35.1221C10.6098 35.1221 10.9756 35.0307 11.1585 34.7563C11.3415 34.5734 11.4329 34.299 11.3415 34.0246C11.3415 33.7502 11.25 33.4758 11.25 33.2929C11.25 33.1099 11.25 32.927 11.25 32.6526C11.1585 30.6404 11.4329 29.5429 12.9878 29.4514H13.5366L13.628 28.9026C13.628 28.8112 13.9939 27.1648 17.0122 27.1648C17.8354 27.1648 20.2134 27.4392 21.2195 27.8965C21.311 27.8965 21.6768 28.0794 22.2256 28.0794C22.3171 28.0794 22.5 28.0794 22.5915 28.0794L21.4939 29.177L22.8659 29.3599C23.0488 29.3599 24.3293 29.6343 24.2378 31.9209L23.9634 34.116C23.9634 34.3904 24.0549 34.5734 24.1463 34.7563C24.3293 34.9392 24.5122 35.0307 24.7866 35.0307H25.061C25.061 35.0307 25.1524 35.1221 25.1524 35.3965C25.1524 36.1282 24.2378 37.1343 23.5976 37.5916L23.3232 37.7746V38.1404C23.3232 41.4331 19.8476 44.0855 17.561 44.0855C15.2744 43.9026 12.0732 41.2502 11.9817 38.049ZM17.7439 45.2746C18.75 45.2746 19.939 44.9087 21.0366 44.177L23.0488 46.9209L20.122 57.8051L19.4817 51.0368L20.9451 48.3843C21.0366 48.2014 21.0366 47.927 20.9451 47.7441C20.8537 47.5612 20.5793 47.3782 20.3963 47.3782H15.1829C14.9085 47.3782 14.7256 47.4697 14.6341 47.7441C14.5427 47.927 14.5427 48.2014 14.6341 48.3843L16.0976 51.0368L15.4573 57.8051L12.5305 47.0124L14.5427 44.177C15.5488 44.9087 16.7378 45.2746 17.7439 45.2746ZM16.2805 48.8416H19.2073L18.4756 50.3051H17.1037L16.2805 48.8416ZM1.55488 58.6282L2.7439 52.2258C3.01829 50.6709 4.20732 49.3904 5.7622 49.0246L11.25 47.7441L14.1768 58.5368H1.55488V58.6282ZM16.6463 58.6282L17.2866 51.677H18.2012L18.8415 58.6282H16.6463ZM21.4024 58.6282L24.3293 47.6526L30.3659 49.116C31.9207 49.4819 33.1098 50.7624 33.3841 52.3173L34.5732 58.7197H21.4024V58.6282ZM36.0366 58.6282L34.7561 51.9514C34.5732 51.2197 34.2988 50.488 33.8415 49.8477L37.2256 49.0246L39.7866 58.5368H36.0366V58.6282ZM42.3476 58.6282L42.8963 52.5916H43.6281L44.1768 58.6282H42.3476ZM46.5549 58.6282L49.1159 48.9331L54.5122 50.2136C55.8842 50.488 56.8902 51.5855 57.1646 52.9575L58.2622 58.5368H46.5549V58.6282Z" stroke="black" stroke-width="2" mask="url(#path-1-inside-1)"/>
<path d="M17.4699 21.2195L23.415 15.8232H24.3296V20.2134H40.6101L45.7321 24.7866V20.2134H48.7504V3.75H41.0674V0H13.6284V15.8232H17.2869L17.4699 21.2195ZM47.5613 5.12195V18.8415H44.543V21.7683L41.3418 18.8415H25.793V15.8232H41.2504V5.12195H47.5613ZM15.1833 1.46341H39.8784V14.4512H22.9577L18.8418 18.1098V14.4512H15.1833V1.46341Z" stroke="black" stroke-width="2" mask="url(#path-1-inside-1)"/>
<path d="M35.8537 5.03049H19.2073V6.40244H35.8537V5.03049Z" stroke="black" stroke-width="2" mask="url(#path-1-inside-1)"/>
<path d="M33.0179 9.42055H22.0423V10.7925H33.0179V9.42055Z" stroke="black" stroke-width="2" mask="url(#path-1-inside-1)"/>
</g>
<defs>
<filter id="filter0_d" x="-4" y="0" width="68" height="68.0002" filterUnits="userSpaceOnUse" color-interpolation-filters="sRGB">
<feFlood flood-opacity="0" result="BackgroundImageFix"/>
<feColorMatrix in="SourceAlpha" type="matrix" values="0 0 0 0 0 0 0 0 0 0 0 0 0 0 0 0 0 0 127 0" result="hardAlpha"/>
<feOffset dy="4"/>
<feGaussianBlur stdDeviation="2"/>
<feComposite in2="hardAlpha" operator="out"/>
<feColorMatrix type="matrix" values="0 0 0 0 0 0 0 0 0 0 0 0 0 0 0 0 0 0 0.25 0"/>
<feBlend mode="normal" in2="BackgroundImageFix" result="effect1_dropShadow"/>
<feBlend mode="normal" in="SourceGraphic" in2="effect1_dropShadow" result="shape"/>
</filter>
</defs>
</svg>
