<svg width="73" height="62" viewBox="0 0 73 62" fill="none" xmlns="http://www.w3.org/2000/svg">
<path d="M60.1534 11.8028H36.6293V13.4307H60.1534V11.8028Z" fill="#242B30"/>
<path d="M66.0142 17.6632H42.4901V19.2912H66.0142V17.6632Z" fill="#242B30"/>
<path d="M57.2227 23.524H39.5593V25.152H57.2227V23.524Z" fill="#242B30"/>
<path d="M0 0V49.7344H7.16304V47.9436H1.79077V1.79077H71.4677V47.9436H55.6879V49.7344H73.2585V0H0Z" fill="#242B30"/>
<path d="M44.4068 37.1748C41.8986 37.1783 39.4598 38.0012 37.4596 39.5191C35.238 36.859 32.2047 35.0068 28.8285 34.2487C30.9388 33.1195 32.6122 31.3152 33.5828 29.1226C34.5533 26.93 34.7653 24.4749 34.185 22.1476C33.6046 19.8204 32.2654 17.7544 30.38 16.2781C28.4946 14.8019 26.1713 14 23.7794 14C21.3875 14 19.0642 14.8019 17.1788 16.2781C15.2934 17.7544 13.9541 19.8204 13.3738 22.1476C12.7935 24.4749 13.0055 26.93 13.976 29.1226C14.9465 31.3152 16.62 33.1195 18.7303 34.2487C15.2516 35.0276 12.1407 36.9707 9.90935 39.7584C7.67802 42.5462 6.45912 46.0125 6.45312 49.5874V62H41.1065V59.8592C42.6956 60.3359 44.3684 60.4637 46.0112 60.234C47.654 60.0043 49.2281 59.4225 50.6267 58.5281C52.0252 57.6336 53.2153 56.4477 54.1159 55.0507C55.0166 53.6538 55.6068 52.0787 55.8463 50.4326C56.0858 48.7865 55.969 47.108 55.5038 45.5112C55.0387 43.9144 54.2362 42.4368 53.1508 41.1789C52.0654 39.921 50.7226 38.9122 49.2138 38.2213C47.7049 37.5304 46.0654 37.1735 44.4068 37.1748ZM14.7039 24.7622C14.7039 22.9619 15.2362 21.202 16.2335 19.7051C17.2308 18.2082 18.6482 17.0415 20.3066 16.3525C21.965 15.6636 23.7899 15.4833 25.5504 15.8345C27.311 16.1858 28.9281 17.0527 30.1974 18.3257C31.4667 19.5987 32.3311 21.2207 32.6813 22.9864C33.0315 24.7521 32.8517 26.5823 32.1648 28.2456C31.4779 29.9089 30.3146 31.3305 28.8221 32.3307C27.3296 33.3309 25.5748 33.8648 23.7798 33.8648C21.3736 33.8619 19.0668 32.902 17.3653 31.1956C15.6639 29.4891 14.7068 27.1755 14.7039 24.7622ZM39.4563 60.345H8.10328V49.5874C8.10743 45.8577 9.58654 42.282 12.2161 39.6447C14.8456 37.0074 18.4109 35.524 22.1296 35.5198H25.43C27.4907 35.5101 29.5277 35.9609 31.3929 36.8397C33.2581 37.7184 34.9047 39.0029 36.2129 40.5999C36.156 40.6578 36.1065 40.7215 36.0479 40.7811C35.9274 40.9077 35.8128 41.0384 35.6981 41.17C35.5529 41.3355 35.4118 41.5076 35.2765 41.6831C35.1692 41.8221 35.0661 41.9628 34.9654 42.1059C34.8392 42.2855 34.7179 42.4692 34.6032 42.6554C34.5116 42.8035 34.4217 42.9516 34.3367 43.1039C34.2294 43.2967 34.1296 43.4936 34.0331 43.6922C33.958 43.8462 33.8829 43.9993 33.8144 44.1565C33.7253 44.3642 33.6494 44.5752 33.5669 44.787C33.5091 44.9434 33.4497 45.0982 33.4019 45.2571C33.3301 45.4821 33.2732 45.7114 33.2154 45.9406C33.1766 46.0928 33.1329 46.2426 33.1015 46.3965C33.0479 46.6531 33.0116 46.9137 32.9753 47.1744C32.9572 47.306 32.9308 47.4351 32.9167 47.5675C32.8761 47.9636 32.8557 48.3616 32.8557 48.7599C32.8557 49.0468 32.8664 49.3323 32.8878 49.6164C32.8944 49.7107 32.9085 49.8026 32.9176 49.8969C32.9357 50.0847 32.953 50.2734 32.9803 50.4588C32.9968 50.5697 33.0199 50.6781 33.0397 50.7898C33.0685 50.9553 33.0966 51.1208 33.1329 51.2863C33.1585 51.4013 33.1907 51.5138 33.2195 51.628C33.2591 51.7836 33.2971 51.94 33.3425 52.0939C33.3771 52.2098 33.4184 52.3231 33.4563 52.4382C33.505 52.5855 33.5537 52.7336 33.6081 52.8792C33.6519 52.9942 33.7006 53.106 33.7476 53.2185C33.8062 53.3608 33.8647 53.5032 33.9291 53.6422C33.9803 53.7531 34.0364 53.8615 34.0941 53.9732C34.1626 54.1089 34.2303 54.2454 34.3037 54.3787C34.3639 54.4862 34.4274 54.5913 34.4902 54.6973C34.5677 54.8272 34.6453 54.9571 34.7278 55.0845C34.7946 55.1871 34.8656 55.2881 34.9357 55.389C35.0182 55.514 35.109 55.6373 35.2005 55.7581C35.2748 55.8566 35.3515 55.9518 35.4291 56.0477C35.524 56.1653 35.6205 56.2828 35.7203 56.397C35.8018 56.4896 35.8843 56.5809 35.9679 56.6709C36.0718 56.7817 36.1766 56.891 36.2847 57.0019C36.373 57.0846 36.4621 57.1732 36.5529 57.2576C36.6651 57.3618 36.7781 57.4636 36.8944 57.5629C36.9885 57.6457 37.0842 57.7226 37.1816 57.8004C37.3004 57.8964 37.4217 57.9891 37.5446 58.0801C37.6458 58.1551 37.7484 58.2288 37.8524 58.301C37.9778 58.3838 38.1057 58.4665 38.2344 58.5493C38.3433 58.618 38.4522 58.685 38.5644 58.7504C38.6956 58.8273 38.8284 58.9002 38.9629 58.9722C39.0792 59.0342 39.1956 59.0963 39.3144 59.155C39.3631 59.179 39.4093 59.2063 39.4588 59.2295L39.4563 60.345ZM44.4068 58.69C42.4486 58.69 40.5343 58.1076 38.9061 57.0165C37.2779 55.9253 36.0089 54.3745 35.2595 52.56C34.5101 50.7455 34.314 48.7489 34.6961 46.8226C35.0781 44.8964 36.0211 43.127 37.4058 41.7383C38.7904 40.3495 40.5546 39.4038 42.4752 39.0206C44.3958 38.6375 46.3866 38.8341 48.1957 39.5857C50.0049 40.3373 51.5512 41.6101 52.6391 43.243C53.7271 44.876 54.3077 46.7959 54.3077 48.7599C54.3101 50.0646 54.0557 51.357 53.5589 52.5628C53.0622 53.7687 52.333 54.8643 51.4132 55.7869C50.4933 56.7094 49.4009 57.4408 48.1985 57.939C46.9962 58.4372 45.7077 58.6924 44.4068 58.69Z" fill="#242B30"/>
<path d="M49.3575 41.7974L42.7569 48.4175L39.4565 45.1075L35.8146 48.7601L42.7569 55.7227L52.9994 45.4501L49.3575 41.7974ZM38.148 48.7601L39.4565 47.4477L42.7569 50.7577L49.3575 44.1376L50.6661 45.4501L42.7569 53.3825L38.148 48.7601Z" fill="#242B30"/>
</svg>
