<svg width="100" height="125" viewBox="0 0 100 125" fill="none" xmlns="http://www.w3.org/2000/svg">
<path d="M14.9154 50.175C15.0154 50.175 15.0154 50.175 15.1154 50.175L16.2154 49.975L16.7154 52.475L15.6154 52.675C15.1154 52.775 14.7154 53.275 14.8154 53.875C14.9154 54.375 15.3154 54.675 15.8154 54.675C15.9154 54.675 15.9154 54.675 16.0154 54.675L17.1154 54.475L17.6154 56.975L16.5154 57.175C16.0154 57.275 15.6154 57.775 15.7154 58.375C15.8154 58.875 16.2154 59.175 16.7154 59.175C16.8154 59.175 16.8154 59.175 16.9154 59.175L18.0154 58.975L18.5154 61.475L17.4154 61.675C16.9154 61.775 16.5154 62.275 16.6154 62.875C16.7154 63.375 17.1154 63.675 17.6154 63.675C17.7154 63.675 17.7154 63.675 17.8154 63.675L18.9154 63.475L19.4154 65.975L18.3154 66.175C17.8154 66.275 17.4154 66.775 17.5154 67.375C17.6154 67.875 18.0154 68.175 18.5154 68.175C18.6154 68.175 18.6154 68.175 18.7154 68.175L19.8154 67.975L20.3154 70.475L19.2154 70.675C18.7154 70.775 18.3154 71.275 18.4154 71.875C18.5154 72.375 18.9154 72.675 19.4154 72.675C19.5154 72.675 19.5154 72.675 19.6154 72.675L20.7154 72.475L21.2154 74.975L20.1154 75.175C19.6154 75.275 19.2154 75.775 19.3154 76.375C19.4154 76.875 19.8154 77.175 20.3154 77.175C20.4154 77.175 20.4154 77.175 20.5154 77.175L21.6154 76.975L22.1154 79.475L21.0154 79.675C20.5154 79.775 20.1154 80.275 20.2154 80.875C20.3154 81.375 20.7154 81.675 21.2154 81.675C21.3154 81.675 21.3154 81.675 21.4154 81.675L22.5154 81.475L23.0154 83.975L21.9154 84.175C21.4154 84.275 21.0154 84.775 21.1154 85.375C21.2154 85.875 21.6154 86.175 22.1154 86.175C22.2154 86.175 22.2154 86.175 22.3154 86.175L23.4154 85.975L23.9154 88.475H22.6154C22.1154 88.575 21.7154 89.075 21.8154 89.675C21.9154 90.175 22.3154 90.475 22.8154 90.475C22.9154 90.475 22.9154 90.475 23.0154 90.475L24.1154 90.275L24.6154 92.775L23.5154 92.975C23.0154 93.075 22.6154 93.575 22.7154 94.175C22.8154 94.675 23.2154 94.975 23.7154 94.975C23.8154 94.975 23.8154 94.975 23.9154 94.975L25.0154 94.775L25.5154 97.275L24.3154 97.475C23.8154 97.575 23.4154 98.075 23.5154 98.675C23.6154 99.175 24.0154 99.475 24.5154 99.475C24.6154 99.475 24.6154 99.475 24.7154 99.475L25.8154 99.275L26.4154 102.575C26.5154 102.875 26.6154 103.075 26.8154 103.175C27.0154 103.275 27.2154 103.375 27.4154 103.375C27.5154 103.375 27.5154 103.375 27.6154 103.375L70.5154 94.975C70.8154 94.875 71.0154 94.775 71.1154 94.575C71.2154 94.375 71.3154 94.075 71.3154 93.775L69.6154 84.875L84.5154 78.675C85.0154 78.475 85.3154 77.875 85.0154 77.375L62.7154 23.575C62.6154 23.375 62.4154 23.175 62.2154 23.075C62.0154 22.975 61.7154 22.975 61.4154 23.075L21.1154 39.775C20.9154 39.875 20.7154 40.075 20.6154 40.275C20.5154 40.475 20.5154 40.775 20.6154 41.075L21.4154 43.075L16.2154 44.075C15.7154 44.175 15.3154 44.675 15.4154 45.275L15.9154 47.975L14.8154 48.175C14.3154 48.275 13.9154 48.775 14.0154 49.375C14.0154 49.875 14.5154 50.175 14.9154 50.175ZM23.2154 42.475L22.7154 41.275L61.2154 25.275L82.8154 77.275L69.2154 82.975L60.2154 36.675C60.1154 36.175 59.6154 35.775 59.0154 35.875L49.6154 37.675L23.3154 42.775C23.3154 42.675 23.3154 42.575 23.2154 42.475ZM17.5154 45.875L58.4154 37.875L69.2154 93.075L28.3154 101.075L27.8154 98.775L28.9154 98.575C29.4154 98.475 29.8154 97.975 29.7154 97.375C29.6154 96.775 29.1154 96.475 28.5154 96.575L27.4154 96.775L26.9154 94.275L28.0154 94.075C28.5154 93.975 28.9154 93.475 28.8154 92.875C28.7154 92.375 28.2154 91.975 27.6154 92.075L26.5154 92.275L26.0154 89.775L27.1154 89.575C27.6154 89.475 28.0154 88.975 27.9154 88.375C27.8154 87.775 27.3154 87.475 26.7154 87.575L25.6154 87.775L25.1154 85.275L26.2154 85.075C26.7154 84.975 27.1154 84.475 27.0154 83.875C26.9154 83.275 26.4154 82.975 25.8154 83.075L24.7154 83.275L24.3154 80.875L25.4154 80.675C25.9154 80.575 26.3154 80.075 26.2154 79.475C26.1154 78.875 25.6154 78.575 25.0154 78.675L23.9154 78.875L23.5154 76.475L24.6154 76.275C25.1154 76.175 25.5154 75.675 25.4154 75.075C25.3154 74.475 24.8154 74.175 24.2154 74.275L23.1154 74.475L22.6154 71.975L23.7154 71.775C24.2154 71.675 24.6154 71.175 24.5154 70.575C24.4154 70.075 23.9154 69.675 23.3154 69.775L22.2154 69.975L21.7154 67.475L22.8154 67.275C23.3154 67.175 23.7154 66.675 23.6154 66.075C23.5154 65.475 23.0154 65.175 22.4154 65.275L21.3154 65.475L20.8154 62.975L21.9154 62.775C22.4154 62.675 22.8154 62.175 22.7154 61.575C22.6154 61.075 22.1154 60.675 21.5154 60.775L20.4154 60.975L19.9154 58.475L21.0154 58.275C21.5154 58.175 21.9154 57.675 21.8154 57.075C21.7154 56.575 21.2154 56.175 20.6154 56.275L19.5154 56.475L19.0154 53.975L20.1154 53.775C20.6154 53.675 21.0154 53.175 20.9154 52.575C20.8154 51.975 20.3154 51.675 19.7154 51.775L18.6154 51.975L18.1154 49.475L19.2154 49.275C19.7154 49.175 20.1154 48.675 20.0154 48.075C19.9154 47.475 19.4154 47.175 18.8154 47.275L17.7154 47.475L17.5154 45.875Z" fill="black"/>
<path d="M31.4153 79.575C31.5153 80.075 31.9153 80.375 32.4153 80.375C32.5153 80.375 32.5153 80.375 32.6153 80.375L57.3153 75.475C57.8153 75.375 58.2153 74.875 58.1153 74.275C58.0153 73.675 57.5153 73.375 56.9153 73.475L32.2153 78.275C31.6153 78.475 31.2153 78.975 31.4153 79.575Z" fill="black"/>
<path d="M33.0156 82.875C32.5156 82.975 32.1156 83.475 32.2156 84.075C32.3156 84.575 32.7156 84.875 33.2156 84.875C33.3156 84.875 33.3156 84.875 33.4156 84.875L58.2156 80.075C58.7156 79.975 59.1156 79.475 59.0156 78.875C58.9156 78.275 58.4156 77.975 57.8156 78.075L33.0156 82.875Z" fill="black"/>
<path d="M34.0156 87.5749C33.5156 87.6749 33.1156 88.1749 33.2156 88.7749C33.3156 89.2749 33.7156 89.5749 34.2156 89.5749C34.3156 89.5749 34.3156 89.5749 34.4156 89.5749L59.2156 84.7749C59.7156 84.6749 60.1156 84.1749 60.0156 83.5749C59.9156 82.9749 59.4156 82.6749 58.8156 82.7749L34.0156 87.5749Z" fill="black"/>
<path d="M40.2155 70.575C40.4155 70.675 40.6155 70.775 40.8155 70.775C40.9155 70.775 40.9155 70.775 41.0155 70.775L46.5155 69.775C47.0155 69.675 47.4155 69.175 47.3155 68.575L44.0155 50.175C44.0155 49.875 43.8155 49.675 43.6155 49.575C43.4155 49.375 43.1155 49.375 42.9155 49.375L37.4155 50.375C36.9155 50.475 36.5155 50.975 36.6155 51.575L39.9155 69.975C39.8155 70.275 40.0155 70.475 40.2155 70.575ZM42.2155 51.575L45.1155 67.975L41.5155 68.575L38.6155 52.175L42.2155 51.575Z" fill="black"/>
<path d="M49.3153 68.9749C49.5153 69.0749 49.7153 69.1749 49.9153 69.1749C50.0153 69.1749 50.0153 69.1749 50.1153 69.1749L55.6153 68.1749C56.1153 68.0749 56.5153 67.5749 56.4153 66.9749L53.7153 51.6749C53.6153 51.1749 53.1153 50.7749 52.5153 50.8749L47.0153 51.8749C46.7153 51.8749 46.5153 52.0749 46.4153 52.2749C46.2153 52.4749 46.2153 52.7749 46.2153 52.9749L48.9153 68.2749C49.0153 68.5749 49.1153 68.8749 49.3153 68.9749ZM51.9153 53.0749L54.3153 66.3749L50.7153 66.9749L48.3153 53.6749L51.9153 53.0749Z" fill="black"/>
<path d="M31.0154 72.275C31.2154 72.375 31.4154 72.475 31.6154 72.475C31.7154 72.475 31.7154 72.475 31.8154 72.475L37.3154 71.475C37.8154 71.375 38.2154 70.875 38.1154 70.275L36.4154 60.775C36.4154 60.475 36.2154 60.275 36.0154 60.175C35.8154 59.975 35.5154 59.975 35.3154 59.975L29.8154 60.975C29.3154 61.075 28.9154 61.575 29.0154 62.175L30.7154 71.675C30.7154 71.875 30.8154 72.075 31.0154 72.275ZM34.6154 62.075L35.9154 69.575L32.3154 70.175L31.0154 62.675L34.6154 62.075Z" fill="black"/>
</svg>
