<svg width="100" height="125" viewBox="0 0 100 125" fill="none" xmlns="http://www.w3.org/2000/svg">
<path d="M29.3574 103H70.5586C73.5127 103 75.916 100.597 75.916 97.6431V28.3569C75.916 25.4033 73.5127 23 70.5586 23H29.3574C26.4033 23 24 25.4033 24 28.3569V97.6431C24 100.597 26.4033 103 29.3574 103ZM70.5586 101H29.3574C27.5059 101 26 99.4941 26 97.6431V86.7285H73.916V97.6431C73.916 99.4941 72.4102 101 70.5586 101ZM29.3574 25H70.5586C72.4102 25 73.916 26.5059 73.916 28.3569V84.7285H26V28.3569C26 26.5059 27.5059 25 29.3574 25Z" fill="black"/>
<path d="M41.9658 32.0635H50.4678C51.0205 32.0635 51.4678 31.6157 51.4678 31.0635C51.4678 30.5112 51.0205 30.0635 50.4678 30.0635H41.9658C41.4131 30.0635 40.9658 30.5112 40.9658 31.0635C40.9658 31.6157 41.4131 32.0635 41.9658 32.0635Z" fill="black"/>
<path d="M55.9551 32.0635H57.9502C58.5029 32.0635 58.9502 31.6157 58.9502 31.0635C58.9502 30.5112 58.5029 30.0635 57.9502 30.0635H55.9551C55.4023 30.0635 54.9551 30.5112 54.9551 31.0635C54.9551 31.6157 55.4023 32.0635 55.9551 32.0635Z" fill="black"/>
<path d="M52.4531 89.8921H47.4629C45.3066 89.8921 43.5527 91.6465 43.5527 93.8027C43.5527 95.9595 45.3066 97.7139 47.4629 97.7139H52.4531C54.6094 97.7139 56.3633 95.9595 56.3633 93.8027C56.3633 91.6465 54.6094 89.8921 52.4531 89.8921ZM52.4531 95.7139H47.4629C46.4092 95.7139 45.5527 94.8564 45.5527 93.8027C45.5527 92.749 46.4092 91.8921 47.4629 91.8921H52.4531C53.5068 91.8921 54.3633 92.749 54.3633 93.8027C54.3633 94.8564 53.5068 95.7139 52.4531 95.7139Z" fill="black"/>
<path d="M44.9395 66.5225L49.0879 73.8364C49.2656 74.1499 49.5977 74.3433 49.958 74.3433C50.3184 74.3433 50.6504 74.1499 50.8281 73.8364L54.9766 66.5225C61.2939 66.2139 66.3389 60.9771 66.3389 54.584V53.5347C66.3389 46.9434 60.9766 41.5811 54.3857 41.5811H45.5303C38.9395 41.5811 33.5771 46.9434 33.5771 53.5347V54.584C33.5771 60.9771 38.6221 66.2139 44.9395 66.5225ZM35.5771 53.5347C35.5771 48.0464 40.042 43.5811 45.5303 43.5811H54.3857C59.874 43.5811 64.3389 48.0464 64.3389 53.5347V54.584C64.3389 60.0723 59.874 64.5371 54.3857 64.5371C54.0254 64.5371 53.6934 64.7305 53.5156 65.0439L49.958 71.3164L46.4004 65.0439C46.2227 64.7305 45.8906 64.5371 45.5303 64.5371C40.042 64.5371 35.5771 60.0723 35.5771 54.584V53.5347Z" fill="black"/>
</svg>
