<svg width="100" height="125" viewBox="0 0 100 125" fill="none" xmlns="http://www.w3.org/2000/svg">
<path d="M64.4244 68.2178C57.2264 68.2178 52.3974 61.2021 52.3063 61.111C51.7596 60.291 50.8485 59.3799 49.9374 59.3799C49.0263 59.471 48.2062 60.6554 47.9329 61.111C47.0218 63.2977 45.7462 64.7555 44.2884 65.3022C43.1039 65.7578 41.6461 65.6667 40.2794 65.0289C39.0038 64.3911 38.366 62.9333 38.8216 61.5666L40.0061 57.3754C40.6438 55.2798 42.1928 53.4575 44.1973 52.6375L48.844 50.633C50.8485 49.7219 52.6708 49.9952 54.6753 50.4508L66.7933 53.2753C67.0666 53.3664 67.34 53.5486 67.5222 53.9131L72.0779 64.6644C72.2601 65.12 72.0779 65.6667 71.7134 65.94C69.0711 67.58 66.6111 68.2178 64.4244 68.2178ZM50.0285 57.3754C51.3952 57.3754 52.7619 58.2865 54.0375 59.9265C54.3108 60.3821 60.871 69.8579 69.8 64.5733L65.7911 55.0975L54.2197 52.3641C52.2152 51.9997 51.0307 51.8175 49.664 52.4553L45.0173 54.5509C43.5595 55.1887 42.4661 56.4642 42.0105 58.0132L40.8261 62.2044C40.735 62.5688 40.9172 63.0244 41.2816 63.2066C42.1017 63.6622 42.9217 63.7533 43.6506 63.4799C44.6528 63.1155 45.4728 62.0221 46.2017 60.3821V60.291C46.384 60.0177 47.6596 57.5576 49.9374 57.3754C49.8463 57.3754 49.9374 57.3754 50.0285 57.3754Z" fill="black"/>
<path d="M65.6998 74.5046C65.3354 74.5046 65.062 74.3224 64.8798 74.049L59.8686 67.1244C59.5952 66.76 59.5952 66.2133 59.8686 65.8489C60.1419 65.4844 60.6886 65.3933 61.053 65.5755C61.2353 65.6666 66.3376 67.6711 70.3466 64.2088C70.6199 64.0266 70.8933 63.9355 71.2577 64.0266C71.6222 64.1177 71.8044 64.2999 71.9866 64.6644L74.5378 70.5867C74.6289 70.8601 74.6289 71.1334 74.5378 71.4067C74.4467 71.6801 74.1733 71.8623 73.9 71.9534L65.9732 74.4135C65.882 74.5046 65.7909 74.5046 65.6998 74.5046ZM63.1487 68.2178L66.0643 72.3179L72.1689 70.4045L70.6199 66.6689C67.9776 68.3089 65.1531 68.4911 63.1487 68.2178Z" fill="black"/>
<path d="M24.6986 71.9534C24.6075 71.9534 24.4253 71.9534 24.3342 71.8623L15.4962 68.4C14.9495 68.2178 14.6762 67.58 14.9495 67.0333C15.1317 66.4867 15.7695 66.2133 16.3162 66.4867L24.1519 69.5845L31.3499 52.8197L23.3319 49.4485C22.7852 49.2663 22.603 48.6285 22.7852 48.0818C22.9675 47.5351 23.6053 47.3529 24.1519 47.5351L33.1721 51.3619C33.4455 51.453 33.6277 51.6352 33.7188 51.9086C33.8099 52.1819 33.8099 52.4552 33.7188 52.7286L25.7009 71.4068C25.5186 71.7712 25.1542 71.9534 24.6986 71.9534Z" fill="black"/>
<path d="M74.4466 73.9579C74.0822 73.9579 73.6266 73.6845 73.5355 73.3201L65.5176 54.6419C65.4264 54.3686 65.4264 54.0952 65.5176 53.8219C65.6087 53.5486 65.7909 53.3663 66.0642 53.2752L75.0844 49.4485C75.6311 49.2662 76.1778 49.4485 76.4511 49.9951C76.6334 50.5418 76.4511 51.0885 75.9044 51.3618L67.7954 54.8241L74.9933 71.5889L82.829 68.4911C83.3757 68.3089 83.9224 68.5822 84.1957 69.0378C84.378 69.5845 84.1046 70.1311 83.6491 70.4045L74.8111 73.8668C74.72 73.8668 74.5378 73.9579 74.4466 73.9579Z" fill="black"/>
<path d="M64.6975 80.3357C63.6953 80.3357 62.693 79.8802 61.9641 79.1513L52.5795 69.1288C52.215 68.6733 52.215 68.0355 52.5795 67.671C53.0351 67.3066 53.6729 67.3066 54.0373 67.671L63.422 77.6024C63.8775 78.0579 64.4242 78.2401 65.062 78.149C65.6998 78.0579 66.1553 77.6024 66.3376 77.0557C66.5198 76.6001 66.4287 76.0534 66.0642 75.689L59.2307 67.1243C58.8663 66.6688 58.9574 66.031 59.413 65.6665C59.8685 65.3021 60.5063 65.3932 60.8708 65.8488L67.7043 74.4134C68.4332 75.3245 68.7065 76.6001 68.2509 77.6935C67.7954 78.969 66.7931 79.8802 65.4264 80.1535C65.2442 80.2446 64.9709 80.3357 64.6975 80.3357Z" fill="black"/>
<path d="M60.0506 83.707C58.6839 83.707 57.3172 83.1603 56.3149 82.1581L48.3881 73.8668C48.0236 73.4112 48.0236 72.7734 48.3881 72.409C48.7525 72.0445 49.4814 72.0445 49.8459 72.409L57.7727 80.7003C58.5016 81.5203 59.595 81.7936 60.6884 81.6114C61.7817 81.338 62.5106 80.6091 62.8751 79.6069V79.5158C63.0573 78.9691 63.604 78.6958 64.1507 78.7869C64.6973 78.9691 64.9707 79.5158 64.7884 80.0625V80.1536C64.2418 81.8847 62.8751 83.1603 61.0528 83.6159C60.7795 83.6159 60.415 83.707 60.0506 83.707Z" fill="black"/>
<path d="M54.9481 86.7137C54.857 86.7137 54.7659 86.7137 54.6748 86.7137C53.3992 86.6226 52.1236 85.9848 51.1214 84.9825L44.5612 77.6935C44.1968 77.2379 44.1968 76.6001 44.6524 76.2357C45.1079 75.8712 45.7457 75.8712 46.1102 76.3268L52.6703 83.6158C53.217 84.2536 54.037 84.6181 54.7659 84.7092C56.0415 84.8003 57.0437 84.0714 57.9549 82.6136C58.2282 82.158 58.866 81.9758 59.3216 82.2491C59.7771 82.5225 59.9594 83.1603 59.686 83.6158C58.1371 86.167 56.3148 86.7137 54.9481 86.7137Z" fill="black"/>
<path d="M45.7455 54.0952C45.6544 54.0952 45.5633 54.0952 45.4722 54.0952C39.8232 52.8196 32.8075 53.3663 32.7164 53.3663C32.1697 53.4574 31.623 53.0018 31.623 52.4551C31.5319 51.9085 31.9874 51.3618 32.5341 51.3618C32.8075 51.3618 40.0054 50.724 45.9278 52.0907C46.4744 52.1818 46.8389 52.7285 46.6567 53.3663C46.6567 53.7307 46.2011 54.0952 45.7455 54.0952Z" fill="black"/>
<path d="M49.9372 88.2626C49.0261 88.2626 48.0238 87.8982 47.386 87.2604L44.2882 84.3448C34.6302 74.869 25.61 68.5822 25.5189 68.4911C25.0633 68.1267 24.9722 67.4889 25.2455 67.0333C25.61 66.5777 26.2478 66.4866 26.7034 66.76C26.7945 66.8511 35.9058 73.1379 45.746 82.7959L48.8438 85.7115C49.2994 86.167 49.9372 86.2582 50.575 86.0759C50.8483 85.9848 51.4861 85.7115 51.6684 84.8915C51.7595 84.3448 52.3061 83.8892 52.8528 83.9803C53.3995 84.0714 53.8551 84.527 53.764 85.0737V85.1648C53.5817 86.5315 52.6706 87.5337 51.3039 87.9893C50.7572 88.2627 50.3017 88.2626 49.9372 88.2626Z" fill="black"/>
<path d="M32.1699 77.0558C31.441 77.0558 30.7121 76.7824 30.0743 76.3269C29.4365 75.7802 28.981 75.0513 28.981 74.1401C28.8898 73.3201 29.1632 72.5001 29.801 71.8623L30.621 70.9512C30.9854 70.4956 31.6232 70.4956 32.0788 70.8601C32.5344 71.2245 32.5344 71.8623 32.1699 72.3179L31.3499 73.229C31.1677 73.4112 31.0766 73.6846 31.0766 74.049C31.0766 74.3224 31.2588 74.5957 31.441 74.7779C31.9877 75.2335 32.7166 75.1424 33.1722 74.5957L33.9922 73.6846C34.3566 73.229 34.9944 73.229 35.45 73.5935C35.9055 73.9579 35.9055 74.5957 35.5411 75.0513L34.7211 75.9624C33.9922 76.6002 33.081 77.0558 32.1699 77.0558Z" fill="black"/>
<path d="M35.1769 81.7025C34.3569 81.7025 33.5369 81.4291 32.808 80.7914C32.0791 80.1536 31.6235 79.2424 31.5324 78.3313C31.4413 77.3291 31.8057 76.4179 32.4435 75.689L34.0836 73.7756C34.448 73.3201 35.0858 73.3201 35.5414 73.6845C35.9969 74.049 35.997 74.6868 35.6325 75.1423L33.9925 77.0557C33.7191 77.3291 33.628 77.7846 33.628 78.1491C33.628 78.6046 33.8102 78.9691 34.1747 79.2424C34.8125 79.7891 35.7236 79.698 36.3614 79.1513L38.0926 77.2379C38.457 76.7824 39.0948 76.7824 39.5504 77.1468C40.0059 77.5113 40.0059 78.1491 39.6415 78.6046L37.9103 80.518C37.1814 81.2469 36.1792 81.7025 35.1769 81.7025Z" fill="black"/>
<path d="M39.6412 84.4359C38.73 84.4359 37.91 84.1625 37.1811 83.5247C35.7233 82.158 35.6322 79.8802 36.9989 78.5135L38.1833 77.2379C38.5478 76.7824 39.1856 76.7824 39.6412 77.1468C40.0967 77.5113 40.0967 78.1491 39.7323 78.6046L38.5478 79.8802C38.0011 80.518 38.0011 81.4291 38.6389 82.0669C39.2767 82.6136 40.1878 82.6136 40.8256 81.9758L42.0101 80.7002C42.3745 80.2447 43.0123 80.2447 43.4679 80.7002C43.9235 81.0647 43.9235 81.7025 43.4679 82.158L42.2834 83.4336C41.4634 84.0714 40.5523 84.4359 39.6412 84.4359Z" fill="black"/>
<path d="M43.8327 87.0781C43.0127 87.0781 42.1016 86.8048 41.4638 86.167C40.0971 84.8914 40.006 82.7047 41.3727 81.338L41.8283 80.8824C42.1927 80.4269 42.8305 80.4269 43.2861 80.8824C43.7416 81.2469 43.7416 81.8847 43.2861 82.3403L42.8305 82.7047C42.2838 83.2514 42.3749 84.1625 42.9216 84.6181C43.4683 85.1648 44.3794 85.1648 44.835 84.6181L45.4728 83.9803C45.8372 83.6158 46.475 83.5247 46.9306 83.9803C47.295 84.3447 47.3862 84.9825 46.9306 85.4381L46.2928 86.0759C45.5639 86.7137 44.6528 87.0781 43.8327 87.0781Z" fill="black"/>
<path d="M12.1252 77.8758C12.0341 77.8758 11.8518 77.8758 11.7607 77.7846L4.74502 74.9601C4.19835 74.7779 3.92501 74.1401 4.19835 73.5934C4.38057 73.0468 5.01836 72.7734 5.56504 73.0468L11.6696 75.5068L23.5143 46.5328L4.65391 38.9705C4.10723 38.7882 3.83389 38.1504 4.10723 37.6038C4.28946 37.1482 4.92725 36.8749 5.47393 37.0571L25.1544 45.075C25.4277 45.1661 25.6099 45.3484 25.701 45.6217C25.7922 45.8951 25.7922 46.1684 25.701 46.4417L13.0363 77.238C12.8541 77.6935 12.4896 77.8758 12.1252 77.8758Z" fill="black"/>
<path d="M87.0202 79.8802C86.6557 79.8802 86.2001 79.6069 86.109 79.2424L73.4443 48.3551C73.3532 48.0817 73.3532 47.8084 73.4443 47.5351C73.5354 47.2617 73.7177 47.0795 73.991 46.9884L93.6714 38.9704C94.2181 38.7882 94.7648 38.9704 95.0381 39.5171C95.2203 40.0638 95.0381 40.6105 94.4914 40.8838L75.8133 48.4462L87.658 77.4202L93.7625 74.9601C94.3092 74.7779 94.8559 75.0512 95.1292 75.5068C95.3115 76.0535 95.0381 76.6001 94.5826 76.8735L87.5668 79.698C87.2935 79.7891 87.2024 79.8802 87.0202 79.8802Z" fill="black"/>
</svg>
