<svg width="628" height="322" viewBox="50 70 628 322" fill="none" xmlns="http://www.w3.org/2000/svg">
<path fill-rule="evenodd" clip-rule="evenodd" d="M97.2505 347.424L314.897 129.778C319.716 133.569 324.361 137.686 328.805 142.129C336.03 149.354 342.392 157.115 347.892 165.283L132.756 380.42C124.587 374.919 116.826 368.557 109.601 361.332C105.158 356.889 101.041 352.243 97.2505 347.424Z" fill="#1254B5"/>
<path fill-rule="evenodd" clip-rule="evenodd" d="M85.8359 211.149L219.776 77.2085C259.968 72.0619 301.79 82.6571 335.268 108.994L117.621 326.641C91.2844 293.163 80.6892 251.341 85.8359 211.149Z" fill="#6AA5FF"/>
<path fill-rule="evenodd" clip-rule="evenodd" d="M171.879 371.179L379.009 164.049C406.993 221.799 397.017 293.318 349.083 341.252C301.149 389.187 229.63 399.162 171.879 371.179Z" fill="#D8DBE8"/>
<path fill-rule="evenodd" clip-rule="evenodd" d="M167.408 345.951L382.545 130.815C386.635 136.889 390.247 143.188 393.384 149.66L186.254 356.79C179.781 353.654 173.482 350.041 167.408 345.951Z" fill="#4F4F4F"/>
<path fill-rule="evenodd" clip-rule="evenodd" d="M55.0634 242.334C59.2682 209.498 73.9803 177.75 99.1998 152.53C124.419 127.311 156.167 112.599 189.004 108.394L55.0634 242.334Z" fill="#B1D0FF"/>
<path d="M163 121.963L183 101.963H342H628" stroke="#9FB2B1"/>
<path d="M253.5 238L399.416 238L623.5 238" stroke="#9FB2B1"/>
<path d="M283.5 350.957L306.58 374.037L624.5 374.037" stroke="#9FB2B1"/>
<path d="M624 306L267.5 306L248.5 287" stroke="#9FB2B1"/>
<path d="M226.481 195L252 170L501.17 170L623 170" stroke="#9FB2B1"/>
<ellipse cx="623.956" cy="101.963" rx="3.95699" ry="3.96328" fill="#1254B5"/>
<ellipse cx="623.956" cy="169.963" rx="3.95699" ry="3.96328" fill="#1254B5"/>
<ellipse cx="623.956" cy="237.963" rx="3.95699" ry="3.96328" fill="#1254B5"/>
<ellipse cx="623.956" cy="305.963" rx="3.95699" ry="3.96328" fill="#1254B5"/>
<ellipse cx="623.956" cy="373.963" rx="3.95699" ry="3.96328" fill="#1254B5"/>
</svg>
