<svg width="162" height="244" viewBox="0 0 162 244" fill="none" xmlns="http://www.w3.org/2000/svg">
<path d="M110.752 168.525C110.752 161.863 109.261 156.004 106.28 150.949C103.299 145.665 98.1401 141.299 90.8026 137.853C83.465 134.407 73.6051 131.765 61.2229 129.927C48.8408 128.089 33.2484 127.169 14.4459 127.169C16.9682 105.802 19.0318 84.0904 20.6369 62.0339C22.242 39.9774 23.5032 19.2994 24.4204 0H153.401V43.0791H67.414C66.9554 51.3503 66.3822 59.3917 65.6943 67.2034C65.2357 74.7853 64.6624 81.4482 63.9745 87.1921C97.4522 89.4896 122.102 97.4162 137.924 110.972C153.975 124.298 162 142.908 162 166.802C162 177.83 160.051 188.055 156.153 197.475C152.255 206.895 146.408 215.051 138.611 221.943C130.815 228.836 120.955 234.235 109.032 238.141C97.3376 242.047 83.5796 244 67.758 244C61.5669 244 55.0318 243.54 48.1529 242.621C41.5032 241.932 34.9682 240.898 28.5478 239.52C22.3567 238.371 16.7389 237.107 11.6943 235.729C6.64968 234.35 2.75159 232.972 0 231.593L9.28662 189.203C15.0191 191.731 22.586 194.258 31.9873 196.785C41.3885 199.083 52.6242 200.232 65.6943 200.232C81.5159 200.232 92.9809 197.13 100.089 190.927C107.197 184.493 110.752 177.026 110.752 168.525Z" fill="#E3E5F0"/>
</svg>
