<svg width="166" height="243" viewBox="0 0 166 243" fill="none" xmlns="http://www.w3.org/2000/svg">
<path d="M158.768 67.8618C158.768 76.5444 157.046 84.8844 153.602 92.8815C150.158 100.879 145.68 108.647 140.17 116.188C134.66 123.499 128.461 130.583 121.573 137.437C114.685 144.292 107.911 150.804 101.253 156.973C97.8091 160.172 94.0208 163.828 89.888 167.941C85.9848 171.825 82.1964 175.824 78.5228 179.937C74.8492 184.049 71.5201 187.934 68.5353 191.59C65.7801 195.017 64.0581 197.873 63.3693 200.158H166V243H6.88797C6.42877 240.487 6.19917 237.288 6.19917 233.403C6.19917 229.519 6.19917 226.777 6.19917 225.178C6.19917 214.21 7.92116 204.157 11.3651 195.017C15.0387 185.877 19.7455 177.423 25.4855 169.654C31.2255 161.657 37.6542 154.231 44.7718 147.377C52.1189 140.522 59.3513 133.667 66.4689 126.812C71.9793 121.557 77.1452 116.645 81.9668 112.075C86.7884 107.276 91.036 102.707 94.7095 98.3653C98.3831 93.7955 101.253 89.3399 103.32 84.9986C105.386 80.4288 106.419 75.859 106.419 71.2891C106.419 61.2355 103.549 54.1523 97.8091 50.0395C92.0692 45.9267 84.9516 43.8702 76.4564 43.8702C70.2573 43.8702 64.4025 44.8985 58.8921 46.9549C53.6113 48.7828 48.675 51.0677 44.083 53.8096C39.7206 56.323 35.9322 58.9506 32.7178 61.6925C29.5035 64.2059 27.0927 66.2624 25.4855 67.8618L0 32.2172C10.1024 22.8491 21.8119 15.1946 35.1286 9.25388C48.675 3.08463 63.1397 0 78.5228 0C92.5284 0 104.582 1.59944 114.685 4.79831C124.787 7.99718 133.053 12.567 139.481 18.5078C146.14 24.22 150.961 31.3032 153.946 39.7574C157.16 47.9831 158.768 57.3512 158.768 67.8618Z" fill="#E3E5F0"/>
</svg>
