<svg width="568" height="355" viewBox="0 0 568 355" fill="none" xmlns="http://www.w3.org/2000/svg">
<path d="M346.153 122.162C354.603 147.915 357.044 175.261 353.287 202.104C349.53 228.946 339.675 254.572 324.479 277.015C309.283 299.459 289.15 318.125 265.622 331.581C242.094 345.037 215.797 352.926 188.747 354.643C161.697 356.361 134.614 351.861 109.573 341.488C84.5318 331.116 62.1989 315.146 44.2866 294.805C26.3742 274.463 13.3582 250.29 6.23661 224.138C-0.884971 197.986 -1.92294 170.551 3.2023 143.936L95.5477 161.719C93.1379 174.233 93.6259 187.132 96.9744 199.429C100.323 211.725 106.443 223.091 114.865 232.655C123.287 242.219 133.788 249.728 145.562 254.605C157.335 259.482 170.07 261.598 182.788 260.79C195.506 259.983 207.871 256.273 218.934 249.947C229.996 243.62 239.463 234.843 246.608 224.291C253.753 213.738 258.386 201.689 260.152 189.068C261.919 176.447 260.772 163.589 256.798 151.481L346.153 122.162Z" fill="#D8DBE8"/>
<path d="M247.236 28.223C277.325 42.2158 302.46 65.0077 319.321 93.5874C336.183 122.167 343.977 155.19 341.674 188.293C339.371 221.396 327.079 253.021 306.423 278.99C285.766 304.96 257.717 324.052 225.981 333.744C194.245 343.435 160.316 343.271 128.675 333.272C97.0347 323.273 69.172 303.91 48.7684 277.742C28.3647 251.573 16.3803 219.83 14.3982 186.707C12.4162 153.583 20.53 120.637 37.6675 92.2224L66.6721 109.716C53.0744 132.261 46.6366 158.402 48.2092 184.683C49.7819 210.965 59.2909 236.151 75.48 256.915C91.6692 277.678 113.777 293.041 138.882 300.975C163.987 308.908 190.908 309.039 216.089 301.349C241.269 293.659 263.525 278.511 279.914 257.905C296.304 237.3 306.057 212.207 307.884 185.942C309.711 159.677 303.527 133.475 290.148 110.799C276.77 88.1222 256.827 70.0382 232.953 58.9356L247.236 28.223Z" fill="#6AA5FF"/>
<path d="M297.497 96.841C312.488 119.143 320.967 145.182 321.983 172.035C322.999 198.888 316.511 225.493 303.247 248.864C289.984 272.235 270.469 291.447 246.894 304.345C223.319 317.242 196.617 323.314 169.783 321.88L171.409 291.455C192.588 292.587 213.664 287.794 232.271 277.615C250.878 267.435 266.28 252.272 276.748 233.826C287.217 215.38 292.338 194.381 291.536 173.187C290.734 151.993 284.042 131.441 272.21 113.838L297.497 96.841Z" fill="#1254B5"/>
<path d="M292.698 176.913C292.698 197.97 286.897 218.62 275.932 236.596C264.966 254.573 249.26 269.181 230.538 278.818L205.422 230.021C215.179 224.999 223.365 217.386 229.079 208.017C234.794 198.648 237.817 187.887 237.817 176.913H292.698Z" fill="#4F4F4F"/>
<path d="M150.088 2.12946C182.572 -2.94813 215.828 1.09646 246.148 13.8123C276.468 26.5281 302.661 47.4154 321.805 74.1453C340.95 100.875 352.294 132.397 354.573 165.197C356.852 197.996 349.976 230.784 334.712 259.905C319.448 289.025 296.396 313.334 268.126 330.121C239.856 346.908 207.479 355.513 174.604 354.976C141.73 354.44 109.651 344.783 81.9433 327.083C54.2358 309.383 31.9889 284.335 17.6831 254.732L30.3265 248.622C43.5006 275.883 63.9874 298.95 89.503 315.249C115.019 331.549 144.56 340.442 174.833 340.936C205.107 341.43 234.923 333.506 260.956 318.047C286.99 302.588 308.219 280.202 322.275 253.386C336.331 226.569 342.663 196.375 340.564 166.17C338.466 135.965 328.019 106.937 310.389 82.3219C292.759 57.7066 268.639 38.4718 240.717 26.7619C212.796 15.0521 182.171 11.3275 152.257 16.0034L150.088 2.12946Z" fill="#B1D0FF"/>
<path d="M321.31 69.6606L363.877 27.0933H567.487" stroke="#9FB2B1"/>
<path d="M330.399 192.588L358.177 164.927H563.536" stroke="#9FB2B1"/>
<path d="M200 268.809L234.532 303.342H567.487" stroke="#9FB2B1"/>
<path d="M562.746 235.586H250.579" stroke="#9FB2B1"/>
<path d="M345.436 152.751L403.127 95.0591H559.487" stroke="#9FB2B1"/>
<circle cx="563.535" cy="27.0936" r="3.95147" fill="#1254B5"/>
<circle cx="563.535" cy="95.0594" r="3.95147" fill="#1254B5"/>
<circle cx="563.535" cy="163.928" r="3.95147" fill="#1254B5"/>
<circle cx="563.535" cy="235.586" r="3.95147" fill="#1254B5"/>
<circle cx="563.535" cy="303.342" r="3.95147" fill="#1254B5"/>
</svg>
